Litton-tb.vcd
$date
	Sun Oct 12 18:27:42 2025
$end
$version
	Icarus Verilog
$end
$timescale
	100ns
$end
$scope module Litton_tb $end
$var wire 1 ! A1 $end
$var wire 1 " A10 $end
$var wire 1 # A11 $end
$var wire 1 $ A12 $end
$var wire 1 % A13 $end
$var wire 1 & A14 $end
$var wire 1 ' A15 $end
$var wire 1 ( A16 $end
$var wire 1 ) A17 $end
$var wire 1 * A18 $end
$var wire 1 + A19 $end
$var wire 1 , A2 $end
$var wire 1 - A20 $end
$var wire 1 . A21 $end
$var wire 1 / A22 $end
$var wire 1 0 A23 $end
$var wire 1 1 A24 $end
$var wire 1 2 A25 $end
$var wire 1 3 A26 $end
$var wire 1 4 A27 $end
$var wire 1 5 A3 $end
$var wire 1 6 A35 $end
$var wire 1 7 A36 $end
$var wire 1 8 A37 $end
$var wire 1 9 A38 $end
$var wire 1 : A39 $end
$var wire 1 ; A4 $end
$var wire 1 < A5 $end
$var wire 1 = A6 $end
$var wire 1 > A7 $end
$var wire 1 ? A8 $end
$var wire 1 @ A9 $end
$var wire 1 A C101 $end
$var wire 1 B C130 $end
$var wire 1 C C20 $end
$var wire 1 D C30 $end
$var wire 1 E C37 $end
$var wire 1 F C39 $end
$var wire 1 G C40 $end
$var wire 1 H C49 $end
$var wire 1 I F101 $end
$var wire 1 J F104 $end
$var wire 1 K F106 $end
$var wire 1 L K0 $end
$var wire 1 M K1 $end
$var wire 1 N K13 $end
$var wire 1 O K14 $end
$var wire 1 P K2 $end
$var wire 1 Q K22 $end
$var wire 1 R K27 $end
$var wire 1 S K28 $end
$var wire 1 T K34 $end
$var wire 1 U K35 $end
$var wire 1 V K37 $end
$var wire 1 W K40 $end
$var wire 1 X K41 $end
$var wire 1 Y K42 $end
$var wire 1 Z K43 $end
$var wire 1 [ K46 $end
$var wire 1 \ K5 $end
$var wire 1 ] K50 $end
$var wire 1 ^ K51 $end
$var wire 1 _ K6 $end
$var wire 1 ` K7 $end
$var wire 1 a K87 $end
$var wire 1 b K9 $end
$var wire 1 c K90 $end
$var wire 1 d K92 $end
$var wire 1 e K94 $end
$var wire 1 f L11 $end
$var wire 1 g L21 $end
$var wire 1 h L31 $end
$var wire 1 i L41 $end
$var wire 1 j M1 $end
$var wire 1 k T39 $end
$var wire 1 l Z4 $end
$var wire 1 m _A11 $end
$var wire 1 n _A18 $end
$var wire 1 o _A2 $end
$var wire 1 p _A20 $end
$var wire 1 q _A21 $end
$var wire 1 r _A22 $end
$var wire 1 s _A23 $end
$var wire 1 t _A24 $end
$var wire 1 u _A25 $end
$var wire 1 v _A26 $end
$var wire 1 w _A27 $end
$var wire 1 x _A30 $end
$var wire 1 y _A31 $end
$var wire 1 z _A32 $end
$var wire 1 { _A33 $end
$var wire 1 | _A37 $end
$var wire 1 } _A38 $end
$var wire 1 ~ _A39 $end
$var wire 1 !" _A4 $end
$var wire 1 "" _A6 $end
$var wire 1 #" _C20 $end
$var wire 1 $" _C30 $end
$var wire 1 %" _C37 $end
$var wire 1 &" _C39 $end
$var wire 1 '" _C40 $end
$var wire 1 (" _C49 $end
$var wire 1 )" _F101 $end
$var wire 1 *" _F104 $end
$var wire 1 +" _K1 $end
$var wire 1 ," _K14 $end
$var wire 1 -" _K150 $end
$var wire 1 ." _K2 $end
$var wire 1 /" _K22 $end
$var wire 1 0" _K27 $end
$var wire 1 1" _K28 $end
$var wire 1 2" _K34 $end
$var wire 1 3" _K35 $end
$var wire 1 4" _K40 $end
$var wire 1 5" _K41 $end
$var wire 1 6" _K42 $end
$var wire 1 7" _K43 $end
$var wire 1 8" _K5 $end
$var wire 1 9" _K50 $end
$var wire 1 :" _K51 $end
$var wire 1 ;" _K6 $end
$var wire 1 <" _K73 $end
$var wire 1 =" _K80 $end
$var wire 1 >" _K82 $end
$var wire 1 ?" _K83 $end
$var wire 1 @" _K9 $end
$var wire 1 A" _K90 $end
$var wire 1 B" _K93 $end
$var wire 1 C" _L19 $end
$var wire 1 D" _L31 $end
$var wire 1 E" _L41 $end
$var wire 1 F" _M1 $end
$var wire 1 G" _T39 $end
$var wire 1 H" _Z1 $end
$var wire 1 I" _Z2 $end
$var wire 1 J" _Z3 $end
$var wire 1 K" _Z4 $end
$var wire 1 L" drum_GS_1 $end
$var wire 1 M" drum_GS_2 $end
$var wire 1 N" drum_S_1 $end
$var wire 1 O" drum_S_2 $end
$var wire 1 P" tmp_C $end
$var wire 1 Q" tmp_D $end
$var wire 1 R" tmp_D_M131_1 $end
$var wire 1 S" tmp_E $end
$var wire 1 T" tmp_F $end
$var wire 1 U" tmp_G $end
$var wire 1 V" tmp_H $end
$var wire 1 W" tmp_I $end
$var wire 1 X" tmp_J $end
$var wire 1 Y" tmp_JK_M146 $end
$var wire 1 Z" tmp_JK_M58 $end
$var wire 1 [" tmp_J_M112_1 $end
$var wire 1 \" tmp_J_M12 $end
$var wire 1 ]" tmp_J_M13 $end
$var wire 1 ^" tmp_J_M14 $end
$var wire 1 _" tmp_J_M60 $end
$var wire 1 `" tmp_J_M63_1 $end
$var wire 1 a" tmp_J_M63_2 $end
$var wire 1 b" tmp_J_M64 $end
$var wire 1 c" tmp_J_M97_1 $end
$var wire 1 d" tmp_J_M97_2 $end
$var wire 1 e" tmp_K $end
$var wire 1 f" tmp_K_M11 $end
$var wire 1 g" tmp_K_M112_1 $end
$var wire 1 h" tmp_K_M12 $end
$var wire 1 i" tmp_K_M13 $end
$var wire 1 j" tmp_K_M14 $end
$var wire 1 k" tmp_K_M63_1 $end
$var wire 1 l" tmp_K_M63_2 $end
$var wire 1 m" tmp_K_M64 $end
$var wire 1 n" tmp_K_M97_1 $end
$var wire 1 o" tmp_K_M97_2 $end
$var wire 1 p" tmp_M $end
$var wire 1 q" tmp_M141_D $end
$var wire 1 r" tmp_M158_D $end
$var wire 1 s" tmp_M157_D $end
$var wire 1 t" tmp_M156_D $end
$var wire 1 u" tmp_M155_D $end
$var wire 1 v" tmp_M153_D $end
$var wire 1 w" tmp_M152_D $end
$var wire 1 x" tmp_M151_D $end
$var wire 1 y" tmp_M150_D $end
$var wire 1 z" tmp_M149_1_D $end
$var wire 1 {" _T7 $end
$var wire 1 |" _T4 $end
$var wire 1 }" _M6 $end
$var wire 1 ~" _M5 $end
$var wire 1 !# _L40 $end
$var wire 1 "# _L39 $end
$var wire 1 ## _L30 $end
$var wire 1 $# _L20 $end
$var wire 1 %# _L10 $end
$var wire 1 &# _K75 $end
$var wire 1 '# _F9 $end
$var wire 1 (# _F8 $end
$var wire 1 )# _F7 $end
$var wire 1 *# _F6 $end
$var wire 1 +# _F5 $end
$var wire 1 ,# _F4 $end
$var wire 1 -# _F3 $end
$var wire 1 .# _F28 $end
$var wire 1 /# _F27 $end
$var wire 1 0# _F26 $end
$var wire 1 1# _F25 $end
$var wire 1 2# _F24 $end
$var wire 1 3# _F23 $end
$var wire 1 4# _F22 $end
$var wire 1 5# _F21 $end
$var wire 1 6# _F20 $end
$var wire 1 7# _F2 $end
$var wire 1 8# _F15 $end
$var wire 1 9# _F14 $end
$var wire 1 :# _F12 $end
$var wire 1 ;# _F11 $end
$var wire 1 <# _F10 $end
$var wire 1 =# _F1 $end
$var wire 1 ># _C2 $end
$var wire 1 ?# _C1 $end
$var wire 1 @# T7 $end
$var wire 1 A# T4 $end
$var wire 1 B# M6 $end
$var wire 1 C# M5 $end
$var wire 1 D# L40 $end
$var wire 1 E# L39 $end
$var wire 1 F# L30 $end
$var wire 1 G# L20 $end
$var wire 1 H# L19 $end
$var wire 1 I# L10 $end
$var wire 1 J# K83 $end
$var wire 1 K# K82 $end
$var wire 1 L# K80 $end
$var wire 1 M# K176 $end
$var wire 1 N# K150 $end
$var wire 1 O# Ib108 $end
$var wire 1 P# Ib107 $end
$var wire 1 Q# Ib106 $end
$var wire 1 R# Ib105 $end
$var wire 1 S# Ib104 $end
$var wire 1 T# Ib103 $end
$var wire 1 U# Ib102 $end
$var wire 1 V# Ib101 $end
$var wire 1 W# F9 $end
$var wire 1 X# F8 $end
$var wire 1 Y# F7 $end
$var wire 1 Z# F6 $end
$var wire 1 [# F5 $end
$var wire 1 \# F4 $end
$var wire 1 ]# F3 $end
$var wire 1 ^# F28 $end
$var wire 1 _# F27 $end
$var wire 1 `# F26 $end
$var wire 1 a# F25 $end
$var wire 1 b# F24 $end
$var wire 1 c# F23 $end
$var wire 1 d# F22 $end
$var wire 1 e# F21 $end
$var wire 1 f# F20 $end
$var wire 1 g# F2 $end
$var wire 1 h# F15 $end
$var wire 1 i# F14 $end
$var wire 1 j# F12 $end
$var wire 1 k# F11 $end
$var wire 1 l# F10 $end
$var wire 1 m# F1 $end
$var wire 1 n# C2 $end
$var wire 1 o# C1 $end
$var reg 1 p# Ib1 $end
$var reg 1 q# Ib2 $end
$var reg 1 r# Ib3 $end
$var reg 1 s# Ib4 $end
$var reg 1 t# Ib5 $end
$var reg 1 u# Ib6 $end
$var reg 1 v# Ib7 $end
$var reg 1 w# Ib8 $end
$var reg 1 x# K75 $end
$var reg 1 y# K76 $end
$var reg 1 z# L50 $end
$var reg 1 {# L51 $end
$var reg 1 |# L53 $end
$var reg 1 }# L60 $end
$var reg 1 ~# S1 $end
$var reg 1 !$ S2 $end
$var reg 1 "$ S3 $end
$var reg 1 #$ S4 $end
$var reg 1 $$ S6 $end
$var reg 1 %$ Z1 $end
$var reg 1 &$ Z2 $end
$var reg 1 '$ Z3 $end
$var reg 1 ($ _L50 $end
$var reg 1 )$ _L51 $end
$var reg 1 *$ _L53 $end
$var reg 1 +$ _L60 $end
$var reg 1 ,$ _S20 $end
$var reg 1 -$ _S21 $end
$var reg 1 .$ _S22 $end
$var reg 1 /$ _S23 $end
$var reg 1 0$ _S24 $end
$var reg 1 1$ _S25 $end
$var reg 1 2$ _S26 $end
$var reg 1 3$ _S27 $end
$var reg 1 4$ _S28 $end
$var reg 1 5$ _S29 $end
$var reg 1 6$ _S30 $end
$var reg 1 7$ _W2 $end
$var reg 7 8$ adr [6:0] $end
$var reg 1 9$ drum_GS_R $end
$var reg 1 :$ drum_S_R $end
$scope module M10 $end
$var wire 1 %$ CLK $end
$var wire 1 ;$ CLR $end
$var wire 1 <$ J $end
$var wire 1 =$ PRE $end
$var wire 1 |" _Q $end
$var wire 1 {" K $end
$var reg 1 A# Q $end
$var reg 1 >$ mQ $end
$upscope $end
$scope module M105 $end
$var wire 1 %$ CLK $end
$var wire 1 ?$ CLR $end
$var wire 1 @$ J $end
$var wire 1 A$ K $end
$var wire 1 B$ PRE $end
$var wire 1 :# _Q $end
$var reg 1 j# Q $end
$var reg 1 C$ mQ $end
$upscope $end
$scope module M11 $end
$var wire 1 %$ CLK $end
$var wire 1 D$ CLR $end
$var wire 1 E$ J $end
$var wire 1 f" K $end
$var wire 1 7$ PRE $end
$var wire 1 ~" _Q $end
$var reg 1 C# Q $end
$var reg 1 F$ mQ $end
$upscope $end
$scope module M112_1 $end
$var wire 1 %$ CLK $end
$var wire 1 G$ CLR $end
$var wire 1 [" J $end
$var wire 1 g" K $end
$var wire 1 ;# _Q $end
$var reg 1 k# Q $end
$var reg 1 H$ mQ $end
$upscope $end
$scope module M112_2 $end
$var wire 1 %$ CLK $end
$var wire 1 7$ CLR $end
$var wire 1 S" J $end
$var wire 1 Q" K $end
$var wire 1 9# _Q $end
$var reg 1 i# Q $end
$var reg 1 I$ mQ $end
$upscope $end
$scope module M12 $end
$var wire 1 %$ CLK $end
$var wire 1 7$ CLR $end
$var wire 1 \" J $end
$var wire 1 h" K $end
$var wire 1 J$ PRE $end
$var wire 1 }" _Q $end
$var reg 1 B# Q $end
$var reg 1 K$ mQ $end
$upscope $end
$scope module M126 $end
$var wire 1 %$ CLK $end
$var wire 1 L$ CLR $end
$var wire 1 M$ J $end
$var wire 1 N$ K $end
$var wire 1 O$ PRE $end
$var wire 1 8# _Q $end
$var reg 1 h# Q $end
$var reg 1 P$ mQ $end
$upscope $end
$scope module M127 $end
$var wire 1 l CLK $end
$var wire 1 Q$ CLR $end
$var wire 1 R$ PRE $end
$var wire 1 /# _Q $end
$var wire 1 .# K $end
$var wire 1 ^# J $end
$var reg 1 _# Q $end
$var reg 1 S$ mQ $end
$upscope $end
$scope module M128_1 $end
$var wire 1 l CLK $end
$var wire 1 T$ CLR $end
$var wire 1 U$ PRE $end
$var wire 1 4# _Q $end
$var wire 1 3# D $end
$var reg 1 d# Q $end
$upscope $end
$scope module M128_2 $end
$var wire 1 l CLK $end
$var wire 1 V$ CLR $end
$var wire 1 4# D $end
$var wire 1 W$ PRE $end
$var wire 1 5# _Q $end
$var reg 1 e# Q $end
$upscope $end
$scope module M129_1 $end
$var wire 1 l CLK $end
$var wire 1 X$ CLR $end
$var wire 1 Y$ PRE $end
$var wire 1 2# _Q $end
$var wire 1 1# D $end
$var reg 1 b# Q $end
$upscope $end
$scope module M129_2 $end
$var wire 1 l CLK $end
$var wire 1 Z$ CLR $end
$var wire 1 2# D $end
$var wire 1 [$ PRE $end
$var wire 1 3# _Q $end
$var reg 1 c# Q $end
$upscope $end
$scope module M13 $end
$var wire 1 %$ CLK $end
$var wire 1 \$ CLR $end
$var wire 1 ]" J $end
$var wire 1 i" K $end
$var wire 1 7$ PRE $end
$var wire 1 ># _Q $end
$var reg 1 n# Q $end
$var reg 1 ]$ mQ $end
$upscope $end
$scope module M130_1 $end
$var wire 1 l CLK $end
$var wire 1 ^$ CLR $end
$var wire 1 /# D $end
$var wire 1 _$ PRE $end
$var wire 1 0# _Q $end
$var reg 1 `# Q $end
$upscope $end
$scope module M130_2 $end
$var wire 1 l CLK $end
$var wire 1 `$ CLR $end
$var wire 1 0# D $end
$var wire 1 a$ PRE $end
$var wire 1 1# _Q $end
$var reg 1 a# Q $end
$upscope $end
$scope module M131_1 $end
$var wire 1 %$ CLK $end
$var wire 1 b$ CLR $end
$var wire 1 R" D $end
$var wire 1 c$ PRE $end
$var wire 1 6# _Q $end
$var reg 1 f# Q $end
$upscope $end
$scope module M131_2 $end
$var wire 1 K" CLK $end
$var wire 1 d$ CLR $end
$var wire 1 6# D $end
$var wire 1 e$ PRE $end
$var wire 1 .# _Q $end
$var reg 1 ^# Q $end
$upscope $end
$scope module M14 $end
$var wire 1 %$ CLK $end
$var wire 1 f$ CLR $end
$var wire 1 ^" J $end
$var wire 1 j" K $end
$var wire 1 7$ PRE $end
$var wire 1 ?# _Q $end
$var reg 1 o# Q $end
$var reg 1 g$ mQ $end
$upscope $end
$scope module M145 $end
$var wire 1 %$ CLK $end
$var wire 1 h$ CLR $end
$var wire 1 i$ J $end
$var wire 1 j$ K $end
$var wire 1 7$ PRE $end
$var wire 1 %# _Q $end
$var reg 1 I# Q $end
$var reg 1 k$ mQ $end
$upscope $end
$scope module M146 $end
$var wire 1 %$ CLK $end
$var wire 1 l$ CLR $end
$var wire 1 m$ J $end
$var wire 1 n$ K $end
$var wire 1 o$ PRE $end
$var wire 1 ## _Q $end
$var reg 1 F# Q $end
$var reg 1 p$ mQ $end
$upscope $end
$scope module M147_1 $end
$var wire 1 H" CLK $end
$var wire 1 q$ CLR $end
$var wire 1 :$ D $end
$var wire 1 r$ PRE $end
$var wire 1 "# _Q $end
$var reg 1 E# Q $end
$upscope $end
$scope module M147_2 $end
$var wire 1 H" CLK $end
$var wire 1 s$ CLR $end
$var wire 1 9$ D $end
$var wire 1 t$ PRE $end
$var wire 1 !# _Q $end
$var reg 1 D# Q $end
$upscope $end
$scope module M149_1 $end
$var wire 1 H" CLK $end
$var wire 1 u$ CLR $end
$var wire 1 7$ PRE $end
$var wire 1 $# _Q $end
$var wire 1 z" D $end
$var reg 1 G# Q $end
$upscope $end
$scope module M150 $end
$var wire 1 H" _CP $end
$var wire 1 v$ _Q $end
$var wire 1 H# Q $end
$var wire 1 y" B $end
$var wire 1 y" A $end
$var reg 8 w$ SR [7:0] $end
$upscope $end
$scope module M151 $end
$var wire 1 %$ _CP $end
$var wire 1 x$ _Q $end
$var wire 1 y" Q $end
$var wire 1 x" B $end
$var wire 1 x" A $end
$var reg 8 y$ SR [7:0] $end
$upscope $end
$scope module M152 $end
$var wire 1 %$ _CP $end
$var wire 1 z$ _Q $end
$var wire 1 x" Q $end
$var wire 1 w" B $end
$var wire 1 w" A $end
$var reg 8 {$ SR [7:0] $end
$upscope $end
$scope module M153 $end
$var wire 1 %$ _CP $end
$var wire 1 |$ _Q $end
$var wire 1 w" Q $end
$var wire 1 v" B $end
$var wire 1 v" A $end
$var reg 8 }$ SR [7:0] $end
$upscope $end
$scope module M154 $end
$var wire 1 f A $end
$var wire 1 f B $end
$var wire 1 %$ _CP $end
$var wire 1 ~$ _Q $end
$var wire 1 v" Q $end
$var reg 8 !% SR [7:0] $end
$upscope $end
$scope module M155 $end
$var wire 1 %$ _CP $end
$var wire 1 "% _Q $end
$var wire 1 z" Q $end
$var wire 1 u" B $end
$var wire 1 u" A $end
$var reg 8 #% SR [7:0] $end
$upscope $end
$scope module M156 $end
$var wire 1 %$ _CP $end
$var wire 1 $% _Q $end
$var wire 1 u" Q $end
$var wire 1 s" B $end
$var wire 1 s" A $end
$var reg 8 %% SR [7:0] $end
$upscope $end
$scope module M157 $end
$var wire 1 %$ _CP $end
$var wire 1 &% _Q $end
$var wire 1 t" Q $end
$var wire 1 s" B $end
$var wire 1 s" A $end
$var reg 8 '% SR [7:0] $end
$upscope $end
$scope module M158 $end
$var wire 1 %$ _CP $end
$var wire 1 (% _Q $end
$var wire 1 s" Q $end
$var wire 1 r" B $end
$var wire 1 r" A $end
$var reg 8 )% SR [7:0] $end
$upscope $end
$scope module M159 $end
$var wire 1 g A $end
$var wire 1 g B $end
$var wire 1 %$ _CP $end
$var wire 1 *% _Q $end
$var wire 1 r" Q $end
$var reg 8 +% SR [7:0] $end
$upscope $end
$scope module M58 $end
$var wire 1 %$ CLK $end
$var wire 1 ,$ CLR $end
$var wire 1 ,% J $end
$var wire 1 -% K $end
$var wire 1 4$ PRE $end
$var wire 1 (# _Q $end
$var reg 1 X# Q $end
$var reg 1 .% mQ $end
$upscope $end
$scope module M59 $end
$var wire 1 %$ CLK $end
$var wire 1 ,$ CLR $end
$var wire 1 /% J $end
$var wire 1 0% K $end
$var wire 1 3$ PRE $end
$var wire 1 )# _Q $end
$var reg 1 Y# Q $end
$var reg 1 1% mQ $end
$upscope $end
$scope module M60 $end
$var wire 1 %$ CLK $end
$var wire 1 ,$ CLR $end
$var wire 1 _" J $end
$var wire 1 2% K $end
$var wire 1 2$ PRE $end
$var wire 1 *# _Q $end
$var reg 1 Z# Q $end
$var reg 1 3% mQ $end
$upscope $end
$scope module M61 $end
$var wire 1 %$ CLK $end
$var wire 1 ,$ CLR $end
$var wire 1 4% J $end
$var wire 1 5% K $end
$var wire 1 1$ PRE $end
$var wire 1 +# _Q $end
$var reg 1 [# Q $end
$var reg 1 6% mQ $end
$upscope $end
$scope module M62 $end
$var wire 1 %$ CLK $end
$var wire 1 ,$ CLR $end
$var wire 1 7% J $end
$var wire 1 8% K $end
$var wire 1 0$ PRE $end
$var wire 1 ,# _Q $end
$var reg 1 \# Q $end
$var reg 1 9% mQ $end
$upscope $end
$scope module M63_1 $end
$var wire 1 %$ CLK $end
$var wire 1 ,$ CLR $end
$var wire 1 `" J $end
$var wire 1 k" K $end
$var wire 1 7# _Q $end
$var reg 1 g# Q $end
$var reg 1 :% mQ $end
$upscope $end
$scope module M63_2 $end
$var wire 1 %$ CLK $end
$var wire 1 ,$ CLR $end
$var wire 1 a" J $end
$var wire 1 l" K $end
$var wire 1 -# _Q $end
$var reg 1 ]# Q $end
$var reg 1 ;% mQ $end
$upscope $end
$scope module M64 $end
$var wire 1 %$ CLK $end
$var wire 1 ,$ CLR $end
$var wire 1 b" J $end
$var wire 1 m" K $end
$var wire 1 -$ PRE $end
$var wire 1 =# _Q $end
$var reg 1 m# Q $end
$var reg 1 <% mQ $end
$upscope $end
$scope module M9 $end
$var wire 1 %$ CLK $end
$var wire 1 =% CLR $end
$var wire 1 >% J $end
$var wire 1 ?% K $end
$var wire 1 @% PRE $end
$var wire 1 {" _Q $end
$var reg 1 @# Q $end
$var reg 1 A% mQ $end
$upscope $end
$scope module M97_1 $end
$var wire 1 %$ CLK $end
$var wire 1 B% CLR $end
$var wire 1 c" J $end
$var wire 1 n" K $end
$var wire 1 '# _Q $end
$var reg 1 W# Q $end
$var reg 1 C% mQ $end
$upscope $end
$scope module M97_2 $end
$var wire 1 %$ CLK $end
$var wire 1 D% CLR $end
$var wire 1 d" J $end
$var wire 1 o" K $end
$var wire 1 <# _Q $end
$var reg 1 l# Q $end
$var reg 1 E% mQ $end
$upscope $end
$upscope $end
$enddefinitions $end
$comment Show the parameter values. $end
$dumpall
$end
#0
$dumpvars
0E%
1D%
0C%
1B%
0A%
1@%
0?%
0>%
1=%
0<%
0;%
0:%
09%
18%
07%
06%
15%
04%
03%
12%
01%
10%
0/%
0.%
1-%
0,%
b0 +%
1*%
b0 )%
1(%
b0 '%
1&%
b0 %%
1$%
b0 #%
1"%
b0 !%
1~$
b0 }$
1|$
b0 {$
1z$
b0 y$
1x$
b0 w$
1v$
1u$
1t$
1s$
1r$
1q$
0p$
1o$
1n$
0m$
1l$
1k$
0j$
0i$
1h$
1g$
1f$
1e$
1d$
1c$
1b$
1a$
1`$
1_$
1^$
1]$
1\$
1[$
1Z$
1Y$
1X$
1W$
1V$
1U$
1T$
0S$
1R$
1Q$
0P$
1O$
0N$
0M$
1L$
0K$
1J$
0I$
0H$
1G$
1F$
0E$
1D$
0C$
1B$
0A$
0@$
1?$
0>$
1=$
0<$
1;$
0:$
09$
b0 8$
07$
16$
15$
14$
13$
12$
11$
10$
1/$
1.$
1-$
1,$
1+$
0*$
0)$
0($
0'$
0&$
1%$
1$$
0#$
0"$
0!$
0~#
0}#
0|#
0{#
0z#
1y#
1x#
1w#
1v#
1u#
1t#
1s#
1r#
1q#
1p#
1o#
1n#
0m#
0l#
0k#
0j#
0i#
0h#
0g#
0f#
0e#
0d#
0c#
0b#
0a#
0`#
0_#
1^#
0]#
0\#
0[#
0Z#
0Y#
0X#
0W#
1V#
1U#
1T#
1S#
1R#
1Q#
1P#
1O#
0N#
1M#
0L#
0K#
0J#
1I#
0H#
0G#
0F#
0E#
0D#
1C#
0B#
0A#
0@#
0?#
0>#
1=#
1<#
1;#
1:#
19#
18#
17#
16#
15#
14#
13#
12#
11#
10#
1/#
0.#
1-#
1,#
1+#
1*#
1)#
1(#
1'#
0&#
0%#
1$#
1##
1"#
1!#
0~"
1}"
1|"
1{"
0z"
0y"
0x"
0w"
0v"
0u"
0t"
0s"
0r"
1q"
0p"
1o"
1n"
0m"
1l"
1k"
0j"
0i"
0h"
0g"
0f"
1e"
0d"
0c"
0b"
1a"
0`"
0_"
0^"
0]"
0\"
0["
1Z"
1Y"
0X"
0W"
0V"
0U"
0T"
0S"
0R"
0Q"
0P"
1O"
0N"
0M"
0L"
0K"
1J"
1I"
0H"
1G"
0F"
1E"
1D"
0C"
1B"
1A"
1@"
1?"
1>"
1="
0<"
1;"
1:"
19"
18"
17"
16"
15"
14"
13"
12"
11"
10"
1/"
1."
1-"
1,"
1+"
1*"
1)"
1("
1'"
1&"
1%"
1$"
1#"
1""
1!"
0~
1}
0|
1{
1z
1y
0x
1w
1v
1u
1t
1s
0r
1q
0p
0o
1n
1m
1l
0k
1j
0i
0h
1g
1f
0e
0d
0c
0b
1a
0`
0_
0^
0]
0\
0[
0Z
0Y
0X
0W
1V
0U
0T
0S
0R
0Q
0P
0O
1N
0M
1L
0K
0J
0I
0H
0G
0F
1E
0D
0C
0B
1A
0@
1?
0>
0=
1<
1;
1:
09
18
17
06
15
04
03
02
01
00
1/
0.
1-
1,
0+
0*
1)
1(
1'
1&
1%
1$
0#
1"
0!
$end
#2
00#
01#
02#
03#
04#
05#
1K"
1`#
1a#
1b#
1c#
1d#
1e#
0l
0O"
b1 !%
b1 +%
1H"
b1 8$
0%$
#10
0K"
1S$
1l
1O"
1;%
0H"
1%$
#12
1P"
13
11
0k"
0v
0t
15#
14#
13#
12#
11#
0/#
0/
0-
1`"
1K"
0e#
0d#
0c#
0b#
0a#
1_#
1r
1p
0l
0O"
0-#
b11 +%
b11 !%
1]#
1H"
0%$
#20
0K"
1l
1O"
1:%
0;%
0H"
1%$
#22
0P"
01
03
1k"
1t
10#
02#
03#
04#
05#
08
1v
0/
0-
0`"
1K"
0`#
1b#
1c#
1d#
1e#
1|
19
1r
1p
0l
0:
0}
0O"
07#
1~
1-#
1g#
0]#
b111 !%
b111 +%
1H"
0%$
#30
0K"
1l
1O"
1;%
0:%
0H"
1%$
#32
1P"
11
0t
0k"
13
15#
14#
13#
01#
1`"
18
0v
1K"
0e#
0d#
0c#
1a#
0|
09
0l
1:
1}
0O"
0-#
17#
0~
b1111 +%
b1111 !%
1]#
0g#
1H"
0%$
#40
0K"
1l
1O"
1:%
0;%
0H"
1%$
#42
0P"
01
03
1k"
1t
12#
04#
05#
08
1v
0/
0-
0`"
1K"
0b#
1d#
1e#
1|
19
1r
1p
0l
0:
0}
0O"
07#
1~
1-#
1g#
0]#
b11111 !%
b11111 +%
1H"
0%$
#50
0K"
1l
1O"
1;%
0:%
0H"
1%$
#52
1P"
11
0t
0k"
13
15#
03#
1`"
18
0v
1K"
0e#
1c#
0|
09
0l
1:
1}
0O"
0-#
17#
0~
b111111 +%
b111111 !%
1]#
0g#
1H"
0%$
#60
0K"
1l
1O"
1:%
0;%
0H"
1%$
#62
0P"
01
03
1k"
1t
14#
08
1v
0/
0-
0`"
1K"
0d#
1|
19
1r
1p
0l
0:
0}
0O"
07#
1~
1-#
1g#
0]#
b1111111 !%
b1111111 +%
1H"
0%$
#70
0K"
1l
1O"
1;%
0:%
0H"
1%$
#72
1P"
11
0t
0k"
13
05#
1`"
18
0v
1K"
1e#
0|
09
0l
0*%
0~$
1:
1}
0O"
1r"
1v"
0-#
17#
0~
b11111111 +%
b11111111 !%
1]#
0g#
1H"
0%$
#80
0K"
1l
1O"
1:%
0;%
0H"
1%$
#82
0P"
01
03
1k"
1t
08
1v
0/
0-
0`"
1K"
1|
19
1r
1p
0l
0:
0}
0O"
07#
1~
1-#
1g#
0]#
b1 }$
b1 )%
1H"
0%$
#90
0K"
1l
1O"
1;%
0:%
0H"
1%$
#92
1P"
11
0t
0k"
13
1`"
18
0v
1K"
0|
09
0l
1:
1}
0O"
0-#
17#
0~
b11 )%
b11 }$
1]#
0g#
1H"
0%$
#100
0K"
1l
1O"
1:%
0;%
0H"
1%$
#102
0P"
01
03
1k"
1t
08
1v
0/
0-
0`"
1K"
1|
19
1r
1p
0l
0:
0}
0O"
07#
1~
1-#
1g#
0]#
b111 }$
b111 )%
1H"
0%$
#110
0K"
1l
1O"
1;%
0:%
0H"
1%$
#112
1P"
11
0t
0k"
13
1`"
18
0v
1K"
0|
09
0l
1:
1}
0O"
0-#
17#
0~
b1111 )%
b1111 }$
1]#
0g#
1H"
0%$
#120
0K"
1l
1O"
1:%
0;%
0H"
1%$
#122
0P"
01
03
1k"
1t
08
1v
0/
0-
0`"
1K"
1|
19
1r
1p
0l
0:
0}
0O"
07#
1~
1-#
1g#
0]#
b11111 }$
b11111 )%
1H"
0%$
#130
0K"
1l
1O"
1;%
0:%
0H"
1%$
#132
1P"
11
0t
0k"
13
1`"
18
0v
1K"
0|
09
0l
1:
1}
0O"
0-#
17#
0~
b111111 )%
b111111 }$
1]#
0g#
1H"
0%$
#140
0K"
1l
1O"
1:%
0;%
0H"
1%$
#142
0P"
01
03
1k"
1t
08
1v
0/
0-
0`"
1K"
1|
19
1r
1p
0l
0:
0}
0O"
07#
1~
1-#
1g#
0]#
b1111111 }$
b1111111 )%
1H"
0%$
#150
0K"
1l
1O"
1;%
0:%
0H"
1%$
#152
1P"
11
0t
0k"
13
1`"
18
0v
1K"
0|
09
0l
0(%
0|$
1:
1}
0O"
1s"
1w"
0-#
17#
0~
b11111111 )%
b11111111 }$
1]#
0g#
1H"
0%$
#160
0K"
1l
1O"
1:%
0;%
0H"
1%$
#162
0P"
01
03
1k"
1t
08
1v
0/
0-
0`"
1K"
1|
19
1r
1p
0l
0:
0}
0O"
07#
1~
1-#
1g#
0]#
b1 {$
b1 '%
b1 %%
1H"
0%$
#170
0K"
1l
1O"
1;%
0:%
0H"
1%$
#172
1P"
11
0t
0k"
13
1`"
18
0v
1K"
0|
09
0l
1:
1}
0O"
0-#
17#
0~
b11 %%
b11 '%
b11 {$
1]#
0g#
1H"
0%$
#180
0K"
1l
1O"
1:%
0;%
0H"
1%$
#182
0P"
01
03
1k"
1t
08
1v
0/
0-
0`"
1K"
1|
19
1r
1p
0l
0:
0}
0O"
07#
1~
1-#
1g#
0]#
b111 {$
b111 '%
b111 %%
1H"
0%$
#190
0K"
1l
1O"
1;%
0:%
0H"
1%$
#192
1P"
11
0t
0k"
13
1`"
18
0v
1K"
0|
09
0l
1:
1}
0O"
0-#
17#
0~
b1111 %%
b1111 '%
b1111 {$
1]#
0g#
1H"
0%$
#200
0K"
1l
1O"
1:%
0;%
0H"
1%$
#202
0P"
01
03
1k"
1t
08
1v
0/
0-
0`"
1K"
1|
19
1r
1p
0l
0:
0}
0O"
07#
1~
1-#
1g#
0]#
b11111 {$
b11111 '%
b11111 %%
1H"
0%$
#210
0K"
1l
1O"
1;%
0:%
0H"
1%$
#212
1P"
11
0t
0k"
13
1`"
18
0v
1K"
0|
09
0l
1:
1}
0O"
0-#
17#
0~
b111111 %%
b111111 '%
b111111 {$
1]#
0g#
1H"
0%$
#220
0K"
1l
1O"
1:%
0;%
0H"
1%$
