Litton-tb.vcd
$date
	Sat Oct 11 22:47:23 2025
$end
$version
	Icarus Verilog
$end
$timescale
	100ns
$end
$scope module Litton_tb $end
$var wire 1 ! A1 $end
$var wire 1 " A10 $end
$var wire 1 # A11 $end
$var wire 1 $ A12 $end
$var wire 1 % A13 $end
$var wire 1 & A14 $end
$var wire 1 ' A15 $end
$var wire 1 ( A16 $end
$var wire 1 ) A17 $end
$var wire 1 * A18 $end
$var wire 1 + A19 $end
$var wire 1 , A2 $end
$var wire 1 - A20 $end
$var wire 1 . A21 $end
$var wire 1 / A22 $end
$var wire 1 0 A23 $end
$var wire 1 1 A24 $end
$var wire 1 2 A25 $end
$var wire 1 3 A26 $end
$var wire 1 4 A27 $end
$var wire 1 5 A3 $end
$var wire 1 6 A35 $end
$var wire 1 7 A36 $end
$var wire 1 8 A37 $end
$var wire 1 9 A38 $end
$var wire 1 : A39 $end
$var wire 1 ; A4 $end
$var wire 1 < A5 $end
$var wire 1 = A6 $end
$var wire 1 > A7 $end
$var wire 1 ? A8 $end
$var wire 1 @ A9 $end
$var wire 1 A C101 $end
$var wire 1 B C130 $end
$var wire 1 C C20 $end
$var wire 1 D C30 $end
$var wire 1 E C37 $end
$var wire 1 F C39 $end
$var wire 1 G C40 $end
$var wire 1 H C49 $end
$var wire 1 I F101 $end
$var wire 1 J F104 $end
$var wire 1 K F106 $end
$var wire 1 L K0 $end
$var wire 1 M K1 $end
$var wire 1 N K13 $end
$var wire 1 O K14 $end
$var wire 1 P K2 $end
$var wire 1 Q K22 $end
$var wire 1 R K27 $end
$var wire 1 S K28 $end
$var wire 1 T K34 $end
$var wire 1 U K35 $end
$var wire 1 V K37 $end
$var wire 1 W K40 $end
$var wire 1 X K41 $end
$var wire 1 Y K42 $end
$var wire 1 Z K43 $end
$var wire 1 [ K46 $end
$var wire 1 \ K5 $end
$var wire 1 ] K50 $end
$var wire 1 ^ K51 $end
$var wire 1 _ K6 $end
$var wire 1 ` K7 $end
$var wire 1 a K87 $end
$var wire 1 b K9 $end
$var wire 1 c K90 $end
$var wire 1 d K92 $end
$var wire 1 e K94 $end
$var wire 1 f L11 $end
$var wire 1 g L21 $end
$var wire 1 h L30 $end
$var wire 1 i L50 $end
$var wire 1 j L51 $end
$var wire 1 k L53 $end
$var wire 1 l M1 $end
$var wire 1 m T39 $end
$var wire 1 n Z4 $end
$var wire 1 o _A11 $end
$var wire 1 p _A18 $end
$var wire 1 q _A2 $end
$var wire 1 r _A20 $end
$var wire 1 s _A21 $end
$var wire 1 t _A22 $end
$var wire 1 u _A27 $end
$var wire 1 v _A30 $end
$var wire 1 w _A31 $end
$var wire 1 x _A32 $end
$var wire 1 y _A33 $end
$var wire 1 z _A37 $end
$var wire 1 { _A38 $end
$var wire 1 | _A39 $end
$var wire 1 } _A4 $end
$var wire 1 ~ _A6 $end
$var wire 1 !" _C20 $end
$var wire 1 "" _C30 $end
$var wire 1 #" _C37 $end
$var wire 1 $" _C39 $end
$var wire 1 %" _C40 $end
$var wire 1 &" _C49 $end
$var wire 1 '" _F101 $end
$var wire 1 (" _F104 $end
$var wire 1 )" _K1 $end
$var wire 1 *" _K14 $end
$var wire 1 +" _K150 $end
$var wire 1 ," _K2 $end
$var wire 1 -" _K22 $end
$var wire 1 ." _K27 $end
$var wire 1 /" _K28 $end
$var wire 1 0" _K34 $end
$var wire 1 1" _K35 $end
$var wire 1 2" _K40 $end
$var wire 1 3" _K41 $end
$var wire 1 4" _K42 $end
$var wire 1 5" _K43 $end
$var wire 1 6" _K5 $end
$var wire 1 7" _K50 $end
$var wire 1 8" _K51 $end
$var wire 1 9" _K6 $end
$var wire 1 :" _K73 $end
$var wire 1 ;" _K80 $end
$var wire 1 <" _K82 $end
$var wire 1 =" _K83 $end
$var wire 1 >" _K9 $end
$var wire 1 ?" _K90 $end
$var wire 1 @" _K93 $end
$var wire 1 A" _L19 $end
$var wire 1 B" _L30 $end
$var wire 1 C" _L50 $end
$var wire 1 D" _L51 $end
$var wire 1 E" _L53 $end
$var wire 1 F" _L60 $end
$var wire 1 G" _M1 $end
$var wire 1 H" _T39 $end
$var wire 1 I" _Z1 $end
$var wire 1 J" _Z2 $end
$var wire 1 K" _Z3 $end
$var wire 1 L" _Z4 $end
$var wire 1 M" tmp_C $end
$var wire 1 N" tmp_D $end
$var wire 1 O" tmp_D_M131_1 $end
$var wire 1 P" tmp_E $end
$var wire 1 Q" tmp_F $end
$var wire 1 R" tmp_G $end
$var wire 1 S" tmp_H $end
$var wire 1 T" tmp_I $end
$var wire 1 U" tmp_J $end
$var wire 1 V" tmp_JK_M58 $end
$var wire 1 W" tmp_J_M112_1 $end
$var wire 1 X" tmp_J_M12 $end
$var wire 1 Y" tmp_J_M13 $end
$var wire 1 Z" tmp_J_M14 $end
$var wire 1 [" tmp_J_M60 $end
$var wire 1 \" tmp_J_M63_1 $end
$var wire 1 ]" tmp_J_M63_2 $end
$var wire 1 ^" tmp_J_M64 $end
$var wire 1 _" tmp_J_M97_1 $end
$var wire 1 `" tmp_J_M97_2 $end
$var wire 1 a" tmp_K $end
$var wire 1 b" tmp_K_M11 $end
$var wire 1 c" tmp_K_M112_1 $end
$var wire 1 d" tmp_K_M12 $end
$var wire 1 e" tmp_K_M13 $end
$var wire 1 f" tmp_K_M14 $end
$var wire 1 g" tmp_K_M63_1 $end
$var wire 1 h" tmp_K_M63_2 $end
$var wire 1 i" tmp_K_M64 $end
$var wire 1 j" tmp_K_M97_1 $end
$var wire 1 k" tmp_K_M97_2 $end
$var wire 1 l" tmp_M $end
$var wire 1 m" tmp_M141_D $end
$var wire 1 n" tmp_M149_D $end
$var wire 1 o" tmp_M158_D $end
$var wire 1 p" tmp_M157_D $end
$var wire 1 q" tmp_M156_D $end
$var wire 1 r" tmp_M155_D $end
$var wire 1 s" tmp_M153_D $end
$var wire 1 t" tmp_M152_D $end
$var wire 1 u" tmp_M151_D $end
$var wire 1 v" tmp_M150_D $end
$var wire 1 w" tmp_M149_1_D $end
$var wire 1 x" _T7 $end
$var wire 1 y" _T4 $end
$var wire 1 z" _M6 $end
$var wire 1 {" _M5 $end
$var wire 1 |" _L20 $end
$var wire 1 }" _L10 $end
$var wire 1 ~" _K75 $end
$var wire 1 !# _F9 $end
$var wire 1 "# _F8 $end
$var wire 1 ## _F7 $end
$var wire 1 $# _F6 $end
$var wire 1 %# _F5 $end
$var wire 1 &# _F4 $end
$var wire 1 '# _F3 $end
$var wire 1 (# _F28 $end
$var wire 1 )# _F27 $end
$var wire 1 *# _F26 $end
$var wire 1 +# _F25 $end
$var wire 1 ,# _F24 $end
$var wire 1 -# _F23 $end
$var wire 1 .# _F22 $end
$var wire 1 /# _F21 $end
$var wire 1 0# _F20 $end
$var wire 1 1# _F2 $end
$var wire 1 2# _F15 $end
$var wire 1 3# _F14 $end
$var wire 1 4# _F12 $end
$var wire 1 5# _F11 $end
$var wire 1 6# _F10 $end
$var wire 1 7# _F1 $end
$var wire 1 8# _C2 $end
$var wire 1 9# _C1 $end
$var wire 1 :# T7 $end
$var wire 1 ;# T4 $end
$var wire 1 <# M6 $end
$var wire 1 =# M5 $end
$var wire 1 ># L20 $end
$var wire 1 ?# L19 $end
$var wire 1 @# L10 $end
$var wire 1 A# K83 $end
$var wire 1 B# K82 $end
$var wire 1 C# K80 $end
$var wire 1 D# K176 $end
$var wire 1 E# K150 $end
$var wire 1 F# Ib108 $end
$var wire 1 G# Ib107 $end
$var wire 1 H# Ib106 $end
$var wire 1 I# Ib105 $end
$var wire 1 J# Ib104 $end
$var wire 1 K# Ib103 $end
$var wire 1 L# Ib102 $end
$var wire 1 M# Ib101 $end
$var wire 1 N# F9 $end
$var wire 1 O# F8 $end
$var wire 1 P# F7 $end
$var wire 1 Q# F6 $end
$var wire 1 R# F5 $end
$var wire 1 S# F4 $end
$var wire 1 T# F3 $end
$var wire 1 U# F28 $end
$var wire 1 V# F27 $end
$var wire 1 W# F26 $end
$var wire 1 X# F25 $end
$var wire 1 Y# F24 $end
$var wire 1 Z# F23 $end
$var wire 1 [# F22 $end
$var wire 1 \# F21 $end
$var wire 1 ]# F20 $end
$var wire 1 ^# F2 $end
$var wire 1 _# F15 $end
$var wire 1 `# F14 $end
$var wire 1 a# F12 $end
$var wire 1 b# F11 $end
$var wire 1 c# F10 $end
$var wire 1 d# F1 $end
$var wire 1 e# C2 $end
$var wire 1 f# C1 $end
$var reg 1 g# Ib1 $end
$var reg 1 h# Ib2 $end
$var reg 1 i# Ib3 $end
$var reg 1 j# Ib4 $end
$var reg 1 k# Ib5 $end
$var reg 1 l# Ib6 $end
$var reg 1 m# Ib7 $end
$var reg 1 n# Ib8 $end
$var reg 1 o# K75 $end
$var reg 1 p# K76 $end
$var reg 1 q# S1 $end
$var reg 1 r# S2 $end
$var reg 1 s# S3 $end
$var reg 1 t# S4 $end
$var reg 1 u# S6 $end
$var reg 1 v# Z1 $end
$var reg 1 w# Z2 $end
$var reg 1 x# Z3 $end
$var reg 1 y# _S20 $end
$var reg 1 z# _S21 $end
$var reg 1 {# _S22 $end
$var reg 1 |# _S23 $end
$var reg 1 }# _S24 $end
$var reg 1 ~# _S25 $end
$var reg 1 !$ _S26 $end
$var reg 1 "$ _S27 $end
$var reg 1 #$ _S28 $end
$var reg 1 $$ _S29 $end
$var reg 1 %$ _S30 $end
$var reg 1 &$ _W2 $end
$var reg 7 '$ adr [6:0] $end
$scope module M10 $end
$var wire 1 v# CLK $end
$var wire 1 ($ CLR $end
$var wire 1 )$ J $end
$var wire 1 *$ PRE $end
$var wire 1 y" _Q $end
$var wire 1 x" K $end
$var reg 1 ;# Q $end
$var reg 1 +$ mQ $end
$upscope $end
$scope module M105 $end
$var wire 1 v# CLK $end
$var wire 1 ,$ CLR $end
$var wire 1 -$ J $end
$var wire 1 .$ K $end
$var wire 1 /$ PRE $end
$var wire 1 4# _Q $end
$var reg 1 a# Q $end
$var reg 1 0$ mQ $end
$upscope $end
$scope module M11 $end
$var wire 1 v# CLK $end
$var wire 1 1$ CLR $end
$var wire 1 2$ J $end
$var wire 1 b" K $end
$var wire 1 &$ PRE $end
$var wire 1 {" _Q $end
$var reg 1 =# Q $end
$var reg 1 3$ mQ $end
$upscope $end
$scope module M112_1 $end
$var wire 1 v# CLK $end
$var wire 1 4$ CLR $end
$var wire 1 W" J $end
$var wire 1 c" K $end
$var wire 1 5# _Q $end
$var reg 1 b# Q $end
$var reg 1 5$ mQ $end
$upscope $end
$scope module M112_2 $end
$var wire 1 v# CLK $end
$var wire 1 &$ CLR $end
$var wire 1 P" J $end
$var wire 1 N" K $end
$var wire 1 3# _Q $end
$var reg 1 `# Q $end
$var reg 1 6$ mQ $end
$upscope $end
$scope module M12 $end
$var wire 1 v# CLK $end
$var wire 1 &$ CLR $end
$var wire 1 X" J $end
$var wire 1 d" K $end
$var wire 1 7$ PRE $end
$var wire 1 z" _Q $end
$var reg 1 <# Q $end
$var reg 1 8$ mQ $end
$upscope $end
$scope module M126 $end
$var wire 1 v# CLK $end
$var wire 1 9$ CLR $end
$var wire 1 :$ J $end
$var wire 1 ;$ K $end
$var wire 1 <$ PRE $end
$var wire 1 2# _Q $end
$var reg 1 _# Q $end
$var reg 1 =$ mQ $end
$upscope $end
$scope module M127 $end
$var wire 1 n CLK $end
$var wire 1 >$ CLR $end
$var wire 1 ?$ PRE $end
$var wire 1 )# _Q $end
$var wire 1 (# K $end
$var wire 1 U# J $end
$var reg 1 V# Q $end
$var reg 1 @$ mQ $end
$upscope $end
$scope module M128_1 $end
$var wire 1 n CLK $end
$var wire 1 A$ CLR $end
$var wire 1 B$ PRE $end
$var wire 1 .# _Q $end
$var wire 1 -# D $end
$var reg 1 [# Q $end
$upscope $end
$scope module M128_2 $end
$var wire 1 n CLK $end
$var wire 1 C$ CLR $end
$var wire 1 .# D $end
$var wire 1 D$ PRE $end
$var wire 1 /# _Q $end
$var reg 1 \# Q $end
$upscope $end
$scope module M129_1 $end
$var wire 1 n CLK $end
$var wire 1 E$ CLR $end
$var wire 1 F$ PRE $end
$var wire 1 ,# _Q $end
$var wire 1 +# D $end
$var reg 1 Y# Q $end
$upscope $end
$scope module M129_2 $end
$var wire 1 n CLK $end
$var wire 1 G$ CLR $end
$var wire 1 ,# D $end
$var wire 1 H$ PRE $end
$var wire 1 -# _Q $end
$var reg 1 Z# Q $end
$upscope $end
$scope module M13 $end
$var wire 1 v# CLK $end
$var wire 1 I$ CLR $end
$var wire 1 Y" J $end
$var wire 1 e" K $end
$var wire 1 &$ PRE $end
$var wire 1 8# _Q $end
$var reg 1 e# Q $end
$var reg 1 J$ mQ $end
$upscope $end
$scope module M130_1 $end
$var wire 1 n CLK $end
$var wire 1 K$ CLR $end
$var wire 1 )# D $end
$var wire 1 L$ PRE $end
$var wire 1 *# _Q $end
$var reg 1 W# Q $end
$upscope $end
$scope module M130_2 $end
$var wire 1 n CLK $end
$var wire 1 M$ CLR $end
$var wire 1 *# D $end
$var wire 1 N$ PRE $end
$var wire 1 +# _Q $end
$var reg 1 X# Q $end
$upscope $end
$scope module M131_1 $end
$var wire 1 v# CLK $end
$var wire 1 O$ CLR $end
$var wire 1 O" D $end
$var wire 1 P$ PRE $end
$var wire 1 0# _Q $end
$var reg 1 ]# Q $end
$upscope $end
$scope module M131_2 $end
$var wire 1 L" CLK $end
$var wire 1 Q$ CLR $end
$var wire 1 0# D $end
$var wire 1 R$ PRE $end
$var wire 1 (# _Q $end
$var reg 1 U# Q $end
$upscope $end
$scope module M14 $end
$var wire 1 v# CLK $end
$var wire 1 S$ CLR $end
$var wire 1 Z" J $end
$var wire 1 f" K $end
$var wire 1 &$ PRE $end
$var wire 1 9# _Q $end
$var reg 1 f# Q $end
$var reg 1 T$ mQ $end
$upscope $end
$scope module M145 $end
$var wire 1 v# CLK $end
$var wire 1 U$ CLR $end
$var wire 1 V$ J $end
$var wire 1 W$ K $end
$var wire 1 &$ PRE $end
$var wire 1 }" _Q $end
$var reg 1 @# Q $end
$var reg 1 X$ mQ $end
$upscope $end
$scope module M149_1 $end
$var wire 1 I" CLK $end
$var wire 1 Y$ CLR $end
$var wire 1 n" D $end
$var wire 1 &$ PRE $end
$var wire 1 |" _Q $end
$var reg 1 ># Q $end
$upscope $end
$scope module M150 $end
$var wire 1 I" _CP $end
$var wire 1 Z$ _Q $end
$var wire 1 ?# Q $end
$var wire 1 v" B $end
$var wire 1 v" A $end
$var reg 8 [$ SR [7:0] $end
$upscope $end
$scope module M151 $end
$var wire 1 v# _CP $end
$var wire 1 \$ _Q $end
$var wire 1 v" Q $end
$var wire 1 u" B $end
$var wire 1 u" A $end
$var reg 8 ]$ SR [7:0] $end
$upscope $end
$scope module M152 $end
$var wire 1 v# _CP $end
$var wire 1 ^$ _Q $end
$var wire 1 u" Q $end
$var wire 1 t" B $end
$var wire 1 t" A $end
$var reg 8 _$ SR [7:0] $end
$upscope $end
$scope module M153 $end
$var wire 1 v# _CP $end
$var wire 1 `$ _Q $end
$var wire 1 t" Q $end
$var wire 1 s" B $end
$var wire 1 s" A $end
$var reg 8 a$ SR [7:0] $end
$upscope $end
$scope module M154 $end
$var wire 1 f A $end
$var wire 1 f B $end
$var wire 1 v# _CP $end
$var wire 1 b$ _Q $end
$var wire 1 s" Q $end
$var reg 8 c$ SR [7:0] $end
$upscope $end
$scope module M155 $end
$var wire 1 v# _CP $end
$var wire 1 d$ _Q $end
$var wire 1 w" Q $end
$var wire 1 r" B $end
$var wire 1 r" A $end
$var reg 8 e$ SR [7:0] $end
$upscope $end
$scope module M156 $end
$var wire 1 v# _CP $end
$var wire 1 f$ _Q $end
$var wire 1 r" Q $end
$var wire 1 p" B $end
$var wire 1 p" A $end
$var reg 8 g$ SR [7:0] $end
$upscope $end
$scope module M157 $end
$var wire 1 v# _CP $end
$var wire 1 h$ _Q $end
$var wire 1 q" Q $end
$var wire 1 p" B $end
$var wire 1 p" A $end
$var reg 8 i$ SR [7:0] $end
$upscope $end
$scope module M158 $end
$var wire 1 v# _CP $end
$var wire 1 j$ _Q $end
$var wire 1 p" Q $end
$var wire 1 o" B $end
$var wire 1 o" A $end
$var reg 8 k$ SR [7:0] $end
$upscope $end
$scope module M159 $end
$var wire 1 g A $end
$var wire 1 g B $end
$var wire 1 v# _CP $end
$var wire 1 l$ _Q $end
$var wire 1 o" Q $end
$var reg 8 m$ SR [7:0] $end
$upscope $end
$scope module M58 $end
$var wire 1 v# CLK $end
$var wire 1 y# CLR $end
$var wire 1 n$ J $end
$var wire 1 o$ K $end
$var wire 1 #$ PRE $end
$var wire 1 "# _Q $end
$var reg 1 O# Q $end
$var reg 1 p$ mQ $end
$upscope $end
$scope module M59 $end
$var wire 1 v# CLK $end
$var wire 1 y# CLR $end
$var wire 1 q$ J $end
$var wire 1 r$ K $end
$var wire 1 "$ PRE $end
$var wire 1 ## _Q $end
$var reg 1 P# Q $end
$var reg 1 s$ mQ $end
$upscope $end
$scope module M60 $end
$var wire 1 v# CLK $end
$var wire 1 y# CLR $end
$var wire 1 [" J $end
$var wire 1 t$ K $end
$var wire 1 !$ PRE $end
$var wire 1 $# _Q $end
$var reg 1 Q# Q $end
$var reg 1 u$ mQ $end
$upscope $end
$scope module M61 $end
$var wire 1 v# CLK $end
$var wire 1 y# CLR $end
$var wire 1 v$ J $end
$var wire 1 w$ K $end
$var wire 1 ~# PRE $end
$var wire 1 %# _Q $end
$var reg 1 R# Q $end
$var reg 1 x$ mQ $end
$upscope $end
$scope module M62 $end
$var wire 1 v# CLK $end
$var wire 1 y# CLR $end
$var wire 1 y$ J $end
$var wire 1 z$ K $end
$var wire 1 }# PRE $end
$var wire 1 &# _Q $end
$var reg 1 S# Q $end
$var reg 1 {$ mQ $end
$upscope $end
$scope module M63_1 $end
$var wire 1 v# CLK $end
$var wire 1 y# CLR $end
$var wire 1 \" J $end
$var wire 1 g" K $end
$var wire 1 1# _Q $end
$var reg 1 ^# Q $end
$var reg 1 |$ mQ $end
$upscope $end
$scope module M63_2 $end
$var wire 1 v# CLK $end
$var wire 1 y# CLR $end
$var wire 1 ]" J $end
$var wire 1 h" K $end
$var wire 1 '# _Q $end
$var reg 1 T# Q $end
$var reg 1 }$ mQ $end
$upscope $end
$scope module M64 $end
$var wire 1 v# CLK $end
$var wire 1 y# CLR $end
$var wire 1 ^" J $end
$var wire 1 i" K $end
$var wire 1 z# PRE $end
$var wire 1 7# _Q $end
$var reg 1 d# Q $end
$var reg 1 ~$ mQ $end
$upscope $end
$scope module M9 $end
$var wire 1 v# CLK $end
$var wire 1 !% CLR $end
$var wire 1 "% J $end
$var wire 1 #% K $end
$var wire 1 $% PRE $end
$var wire 1 x" _Q $end
$var reg 1 :# Q $end
$var reg 1 %% mQ $end
$upscope $end
$scope module M97_1 $end
$var wire 1 v# CLK $end
$var wire 1 &% CLR $end
$var wire 1 _" J $end
$var wire 1 j" K $end
$var wire 1 !# _Q $end
$var reg 1 N# Q $end
$var reg 1 '% mQ $end
$upscope $end
$scope module M97_2 $end
$var wire 1 v# CLK $end
$var wire 1 (% CLR $end
$var wire 1 `" J $end
$var wire 1 k" K $end
$var wire 1 6# _Q $end
$var reg 1 c# Q $end
$var reg 1 )% mQ $end
$upscope $end
$upscope $end
$enddefinitions $end
$comment Show the parameter values. $end
$dumpall
$end
#0
$dumpvars
0)%
1(%
0'%
1&%
0%%
1$%
0#%
0"%
1!%
0~$
0}$
0|$
0{$
1z$
0y$
0x$
xw$
xv$
0u$
1t$
0s$
1r$
0q$
0p$
xo$
xn$
b0 m$
1l$
b0 k$
1j$
b0 i$
1h$
b0 g$
1f$
b0 e$
1d$
b0 c$
1b$
b0 a$
1`$
b0 _$
1^$
b0 ]$
1\$
b0 [$
1Z$
1Y$
1X$
0W$
0V$
1U$
1T$
1S$
1R$
1Q$
1P$
1O$
1N$
1M$
1L$
1K$
1J$
1I$
1H$
1G$
1F$
1E$
1D$
1C$
1B$
1A$
0@$
1?$
1>$
0=$
1<$
0;$
0:$
19$
08$
17$
06$
05$
14$
13$
02$
11$
00$
1/$
0.$
0-$
1,$
0+$
1*$
0)$
1($
b0 '$
0&$
1%$
1$$
1#$
1"$
1!$
1~#
1}#
1|#
1{#
1z#
1y#
0x#
0w#
1v#
1u#
0t#
0s#
0r#
0q#
1p#
1o#
1n#
1m#
1l#
1k#
1j#
1i#
1h#
1g#
1f#
1e#
0d#
0c#
0b#
0a#
0`#
0_#
0^#
0]#
0\#
0[#
0Z#
0Y#
0X#
0W#
0V#
1U#
0T#
0S#
0R#
0Q#
0P#
0O#
0N#
1M#
1L#
1K#
1J#
1I#
1H#
1G#
1F#
0E#
1D#
0C#
0B#
0A#
1@#
0?#
z>#
1=#
0<#
0;#
0:#
09#
08#
17#
16#
15#
14#
13#
12#
11#
10#
1/#
1.#
1-#
1,#
1+#
1*#
1)#
0(#
1'#
1&#
1%#
1$#
1##
1"#
1!#
0~"
0}"
x|"
0{"
1z"
1y"
1x"
0w"
0v"
0u"
0t"
0s"
0r"
0q"
0p"
0o"
zn"
1m"
0l"
1k"
1j"
0i"
1h"
1g"
0f"
0e"
0d"
0c"
0b"
1a"
0`"
0_"
0^"
1]"
0\"
0["
0Z"
0Y"
0X"
xW"
xV"
0U"
0T"
0S"
0R"
0Q"
0P"
0O"
0N"
0M"
0L"
1K"
1J"
0I"
1H"
0G"
zF"
zE"
zD"
zC"
zB"
0A"
1@"
1?"
1>"
1="
1<"
1;"
0:"
19"
18"
17"
16"
15"
14"
13"
12"
11"
10"
1/"
1."
1-"
1,"
1+"
1*"
1)"
1("
1'"
1&"
1%"
1$"
1#"
1""
1!"
1~
1}
0|
1{
0z
1y
1x
1w
0v
1u
0t
1s
0r
0q
1p
1o
1n
0m
1l
zk
zj
zi
zh
zg
1f
0e
0d
0c
0b
1a
0`
0_
0^
0]
0\
0[
0Z
0Y
0X
0W
1V
0U
0T
0S
0R
0Q
0P
0O
1N
0M
1L
zK
0J
0I
0H
0G
0F
1E
0D
0C
0B
1A
0@
1?
0>
0=
1<
1;
1:
09
18
17
06
15
04
03
02
01
00
1/
0.
1-
1,
0+
0*
1)
1(
1'
1&
1%
1$
0#
1"
0!
$end
#2
0*#
0+#
0,#
0-#
0.#
0/#
1L"
1W#
1X#
1Y#
1Z#
1[#
1\#
0n
b1 c$
b0x m$
1I"
b1 '$
0v#
#10
0L"
1@$
1n
1}$
0I"
1v#
#12
1M"
13
11
0g"
1/#
1.#
1-#
1,#
1+#
0)#
0/
0-
1\"
1L"
0\#
0[#
0Z#
0Y#
0X#
1V#
1t
1r
0n
0'#
b0xx m$
b11 c$
1T#
1I"
0v#
#20
0L"
1n
1|$
0}$
0I"
1v#
#22
0M"
01
03
1g"
1*#
0,#
0-#
0.#
0/#
08
0/
0-
0\"
1L"
0W#
1Y#
1Z#
1[#
1\#
1z
19
1t
1r
0n
0:
0{
01#
1|
1'#
1^#
0T#
b111 c$
b0xxx m$
1I"
0v#
#30
0L"
1n
1}$
0|$
0I"
1v#
#32
1M"
11
0g"
13
1/#
1.#
1-#
0+#
1\"
18
1L"
0\#
0[#
0Z#
1X#
0z
09
0n
1:
1{
0'#
11#
0|
b0xxxx m$
b1111 c$
1T#
0^#
1I"
0v#
#40
0L"
1n
1|$
0}$
0I"
1v#
#42
0M"
01
03
1g"
1,#
0.#
0/#
08
0/
0-
0\"
1L"
0Y#
1[#
1\#
1z
19
1t
1r
0n
0:
0{
01#
1|
1'#
1^#
0T#
b11111 c$
b0xxxxx m$
1I"
0v#
#50
0L"
1n
1}$
0|$
0I"
1v#
#52
1M"
11
0g"
13
1/#
0-#
1\"
18
1L"
0\#
1Z#
0z
09
0n
1:
1{
0'#
11#
0|
b0xxxxxx m$
b111111 c$
1T#
0^#
1I"
0v#
#60
0L"
1n
1|$
0}$
0I"
1v#
#62
0M"
01
03
1g"
1.#
08
0/
0-
0\"
1L"
0[#
1z
19
1t
1r
0n
0:
0{
01#
1|
1'#
1^#
0T#
b1111111 c$
b0xxxxxxx m$
1I"
0v#
#70
0L"
1n
1}$
0|$
0I"
1v#
#72
1M"
11
0g"
13
0/#
1\"
18
1L"
1\#
0z
09
0n
xl$
0b$
1:
1{
xo"
1s"
0'#
11#
0|
bx m$
b11111111 c$
1T#
0^#
1I"
0v#
#80
0L"
1n
1|$
0}$
0I"
1v#
#82
0M"
01
03
1g"
08
0/
0-
0\"
1L"
1z
19
1t
1r
0n
0:
0{
01#
1|
1'#
1^#
0T#
b1 a$
b0x k$
1I"
0v#
#90
0L"
1n
1}$
0|$
0I"
1v#
#92
1M"
11
0g"
13
1\"
18
1L"
0z
09
0n
1:
1{
0'#
11#
0|
b0xx k$
b11 a$
1T#
0^#
1I"
0v#
#100
0L"
1n
1|$
0}$
0I"
1v#
#102
0M"
01
03
1g"
08
0/
0-
0\"
1L"
1z
19
1t
1r
0n
0:
0{
01#
1|
1'#
1^#
0T#
b111 a$
b0xxx k$
1I"
0v#
#110
0L"
1n
1}$
0|$
0I"
1v#
#112
1M"
11
0g"
13
1\"
18
1L"
0z
09
0n
1:
1{
0'#
11#
0|
b0xxxx k$
b1111 a$
1T#
0^#
1I"
0v#
#120
0L"
1n
1|$
0}$
0I"
1v#
#122
0M"
01
03
1g"
08
0/
0-
0\"
1L"
1z
19
1t
1r
0n
0:
0{
01#
1|
1'#
1^#
0T#
b11111 a$
b0xxxxx k$
1I"
0v#
#130
0L"
1n
1}$
0|$
0I"
1v#
#132
1M"
11
0g"
13
1\"
18
1L"
0z
09
0n
1:
1{
0'#
11#
0|
b0xxxxxx k$
b111111 a$
1T#
0^#
1I"
0v#
#140
0L"
1n
1|$
0}$
0I"
1v#
#142
0M"
01
03
1g"
08
0/
0-
0\"
1L"
1z
19
1t
1r
0n
0:
0{
01#
1|
1'#
1^#
0T#
b1111111 a$
b0xxxxxxx k$
1I"
0v#
#150
0L"
1n
1}$
0|$
0I"
1v#
#152
1M"
11
0g"
13
1\"
18
1L"
0z
09
0n
xj$
0`$
1:
1{
xp"
1t"
0'#
11#
0|
bx k$
b11111111 a$
1T#
0^#
1I"
0v#
#160
0L"
1n
1|$
0}$
0I"
1v#
#162
0M"
01
03
1g"
08
0/
0-
0\"
1L"
1z
19
1t
1r
0n
0:
0{
01#
1|
1'#
1^#
0T#
b1 _$
b0x i$
b0x g$
1I"
0v#
#170
0L"
1n
1}$
0|$
0I"
1v#
#172
1M"
11
0g"
13
1\"
18
1L"
0z
09
0n
1:
1{
0'#
11#
0|
b0xx g$
b0xx i$
b11 _$
1T#
0^#
1I"
0v#
#180
0L"
1n
1|$
0}$
0I"
1v#
#182
0M"
01
03
1g"
08
0/
0-
0\"
1L"
1z
19
1t
1r
0n
0:
0{
01#
1|
1'#
1^#
0T#
b111 _$
b0xxx i$
b0xxx g$
1I"
0v#
#190
0L"
1n
1}$
0|$
0I"
1v#
#192
1M"
11
0g"
13
1\"
18
1L"
0z
09
0n
1:
1{
0'#
11#
0|
b0xxxx g$
b0xxxx i$
b1111 _$
1T#
0^#
1I"
0v#
#200
0L"
1n
1|$
0}$
0I"
1v#
#202
0M"
01
03
1g"
08
0/
0-
0\"
1L"
1z
19
1t
1r
0n
0:
0{
01#
1|
1'#
1^#
0T#
b11111 _$
b0xxxxx i$
b0xxxxx g$
1I"
0v#
#210
0L"
1n
1}$
0|$
0I"
1v#
#212
1M"
11
0g"
13
1\"
18
1L"
0z
09
0n
1:
1{
0'#
11#
0|
b0xxxxxx g$
b0xxxxxx i$
b111111 _$
1T#
0^#
1I"
0v#
#220
0L"
1n
1|$
0}$
0I"
1v#
#222
0M"
01
03
1g"
08
0/
0-
0\"
1L"
1z
19
1t
1r
0n
0:
0{
01#
1|
1'#
1^#
0T#
b1111111 _$
b0xxxxxxx i$
b0xxxxxxx g$
1I"
0v#
#230
0L"
1n
1}$
0|$
0I"
1v#
#232
1M"
11
0g"
13
1\"
18
1L"
0z
09
0n
xf$
xh$
0^$
1:
1{
xr"
xq"
1u"
0'#
11#
0|
bx g$
bx i$
b11111111 _$
1T#
0^#
1I"
0v#
#240
0L"
1n
1|$
0}$
0I"
1v#
#242
0M"
01
03
1g"
08
0/
0-
0\"
1L"
1z
19
1t
1r
0n
0:
0{
01#
1|
1'#
1^#
0T#
b1 ]$
b0x e$
1I"
0v#
#250
0L"
1n
1}$
0|$
0I"
1v#
#252
1M"
11
0g"
13
1\"
18
1L"
0z
09
0n
1:
1{
0'#
11#
0|
b0xx e$
b11 ]$
1T#
0^#
1I"
0v#
#260
0L"
1n
1|$
0}$
0I"
1v#
#262
0M"
01
03
1g"
08
0/
0-
0\"
1L"
1z
19
1t
1r
0n
0:
0{
01#
1|
1'#
1^#
0T#
b111 ]$
b0xxx e$
1I"
0v#
#270
0L"
1n
1}$
0|$
0I"
1v#
#272
1M"
11
0g"
13
1\"
18
1L"
0z
09
0n
1:
1{
0'#
11#
0|
b0xxxx e$
b1111 ]$
1T#
0^#
1I"
0v#
#280
0L"
1n
1|$
0}$
0I"
1v#
#282
0M"
01
03
1g"
08
0/
0-
0\"
1L"
1z
19
1t
1r
0n
0:
0{
01#
1|
1'#
1^#
0T#
b11111 ]$
b0xxxxx e$
1I"
0v#
#290
0L"
1n
1}$
0|$
0I"
1v#
#292
1M"
11
0g"
13
1\"
18
1L"
0z
09
0n
1:
1{
0'#
11#
0|
b0xxxxxx e$
b111111 ]$
1T#
0^#
1I"
0v#
#300
0L"
1n
1|$
0}$
0I"
1v#
#302
0M"
01
03
1g"
08
0/
0-
0\"
1L"
1z
19
1t
1r
0n
0:
0{
01#
1|
1'#
1^#
0T#
b1111111 ]$
b0xxxxxxx e$
1I"
0v#
#310
0L"
1n
1}$
0|$
0I"
1v#
