Litton-tb.vcd
$date
	Sat Oct 11 18:47:01 2025
$end
$version
	Icarus Verilog
$end
$timescale
	100ns
$end
$scope module Litton_tb $end
$var wire 1 ! A1 $end
$var wire 1 " A10 $end
$var wire 1 # A11 $end
$var wire 1 $ A12 $end
$var wire 1 % A13 $end
$var wire 1 & A14 $end
$var wire 1 ' A15 $end
$var wire 1 ( A16 $end
$var wire 1 ) A17 $end
$var wire 1 * A18 $end
$var wire 1 + A19 $end
$var wire 1 , A2 $end
$var wire 1 - A20 $end
$var wire 1 . A21 $end
$var wire 1 / A22 $end
$var wire 1 0 A23 $end
$var wire 1 1 A24 $end
$var wire 1 2 A25 $end
$var wire 1 3 A26 $end
$var wire 1 4 A27 $end
$var wire 1 5 A3 $end
$var wire 1 6 A35 $end
$var wire 1 7 A36 $end
$var wire 1 8 A37 $end
$var wire 1 9 A38 $end
$var wire 1 : A39 $end
$var wire 1 ; A4 $end
$var wire 1 < A5 $end
$var wire 1 = A6 $end
$var wire 1 > A7 $end
$var wire 1 ? A8 $end
$var wire 1 @ A9 $end
$var wire 1 A C101 $end
$var wire 1 B C130 $end
$var wire 1 C C20 $end
$var wire 1 D C30 $end
$var wire 1 E C37 $end
$var wire 1 F C39 $end
$var wire 1 G C40 $end
$var wire 1 H C49 $end
$var wire 1 I F101 $end
$var wire 1 J F104 $end
$var wire 1 K F106 $end
$var wire 1 L Ib101 $end
$var wire 1 M Ib102 $end
$var wire 1 N Ib103 $end
$var wire 1 O Ib104 $end
$var wire 1 P Ib105 $end
$var wire 1 Q Ib106 $end
$var wire 1 R Ib107 $end
$var wire 1 S Ib108 $end
$var wire 1 T K0 $end
$var wire 1 U K1 $end
$var wire 1 V K13 $end
$var wire 1 W K14 $end
$var wire 1 X K176 $end
$var wire 1 Y K2 $end
$var wire 1 Z K22 $end
$var wire 1 [ K27 $end
$var wire 1 \ K28 $end
$var wire 1 ] K34 $end
$var wire 1 ^ K35 $end
$var wire 1 _ K37 $end
$var wire 1 ` K40 $end
$var wire 1 a K41 $end
$var wire 1 b K42 $end
$var wire 1 c K43 $end
$var wire 1 d K46 $end
$var wire 1 e K5 $end
$var wire 1 f K50 $end
$var wire 1 g K51 $end
$var wire 1 h K6 $end
$var wire 1 i K7 $end
$var wire 1 j K87 $end
$var wire 1 k K9 $end
$var wire 1 l K92 $end
$var wire 1 m L10 $end
$var wire 1 n L20 $end
$var wire 1 o L30 $end
$var wire 1 p L50 $end
$var wire 1 q L51 $end
$var wire 1 r L53 $end
$var wire 1 s M1 $end
$var wire 1 t T39 $end
$var wire 1 u Z4 $end
$var wire 1 v _A11 $end
$var wire 1 w _A18 $end
$var wire 1 x _A2 $end
$var wire 1 y _A20 $end
$var wire 1 z _A21 $end
$var wire 1 { _A22 $end
$var wire 1 | _A27 $end
$var wire 1 } _A30 $end
$var wire 1 ~ _A31 $end
$var wire 1 !" _A32 $end
$var wire 1 "" _A33 $end
$var wire 1 #" _A37 $end
$var wire 1 $" _A38 $end
$var wire 1 %" _A39 $end
$var wire 1 &" _A4 $end
$var wire 1 '" _A6 $end
$var wire 1 (" _C20 $end
$var wire 1 )" _C30 $end
$var wire 1 *" _C37 $end
$var wire 1 +" _C39 $end
$var wire 1 ," _C40 $end
$var wire 1 -" _C49 $end
$var wire 1 ." _F101 $end
$var wire 1 /" _F104 $end
$var wire 1 0" _K1 $end
$var wire 1 1" _K14 $end
$var wire 1 2" _K2 $end
$var wire 1 3" _K22 $end
$var wire 1 4" _K27 $end
$var wire 1 5" _K28 $end
$var wire 1 6" _K34 $end
$var wire 1 7" _K35 $end
$var wire 1 8" _K40 $end
$var wire 1 9" _K41 $end
$var wire 1 :" _K42 $end
$var wire 1 ;" _K43 $end
$var wire 1 <" _K5 $end
$var wire 1 =" _K50 $end
$var wire 1 >" _K51 $end
$var wire 1 ?" _K6 $end
$var wire 1 @" _K73 $end
$var wire 1 A" _K75 $end
$var wire 1 B" _K9 $end
$var wire 1 C" _L10 $end
$var wire 1 D" _L20 $end
$var wire 1 E" _L30 $end
$var wire 1 F" _L50 $end
$var wire 1 G" _L51 $end
$var wire 1 H" _L53 $end
$var wire 1 I" _M1 $end
$var wire 1 J" _T39 $end
$var wire 1 K" _Z1 $end
$var wire 1 L" _Z2 $end
$var wire 1 M" _Z3 $end
$var wire 1 N" _Z4 $end
$var wire 1 O" tmp_C $end
$var wire 1 P" tmp_D $end
$var wire 1 Q" tmp_D_M131_1 $end
$var wire 1 R" tmp_E $end
$var wire 1 S" tmp_JK_M58 $end
$var wire 1 T" tmp_J_M112_1 $end
$var wire 1 U" tmp_J_M12 $end
$var wire 1 V" tmp_J_M13 $end
$var wire 1 W" tmp_J_M14 $end
$var wire 1 X" tmp_J_M60 $end
$var wire 1 Y" tmp_J_M63_1 $end
$var wire 1 Z" tmp_J_M63_2 $end
$var wire 1 [" tmp_J_M64 $end
$var wire 1 \" tmp_J_M97_1 $end
$var wire 1 ]" tmp_J_M97_2 $end
$var wire 1 ^" tmp_K_M11 $end
$var wire 1 _" tmp_K_M112_1 $end
$var wire 1 `" tmp_K_M12 $end
$var wire 1 a" tmp_K_M13 $end
$var wire 1 b" tmp_K_M14 $end
$var wire 1 c" tmp_K_M63_1 $end
$var wire 1 d" tmp_K_M63_2 $end
$var wire 1 e" tmp_K_M64 $end
$var wire 1 f" tmp_K_M97_1 $end
$var wire 1 g" tmp_K_M97_2 $end
$var wire 1 h" tmp_M $end
$var wire 1 i" _T7 $end
$var wire 1 j" _T4 $end
$var wire 1 k" _M6 $end
$var wire 1 l" _M5 $end
$var wire 1 m" _F9 $end
$var wire 1 n" _F8 $end
$var wire 1 o" _F7 $end
$var wire 1 p" _F6 $end
$var wire 1 q" _F5 $end
$var wire 1 r" _F4 $end
$var wire 1 s" _F3 $end
$var wire 1 t" _F28 $end
$var wire 1 u" _F27 $end
$var wire 1 v" _F26 $end
$var wire 1 w" _F25 $end
$var wire 1 x" _F24 $end
$var wire 1 y" _F23 $end
$var wire 1 z" _F22 $end
$var wire 1 {" _F21 $end
$var wire 1 |" _F20 $end
$var wire 1 }" _F2 $end
$var wire 1 ~" _F15 $end
$var wire 1 !# _F14 $end
$var wire 1 "# _F12 $end
$var wire 1 ## _F11 $end
$var wire 1 $# _F10 $end
$var wire 1 %# _F1 $end
$var wire 1 &# _C2 $end
$var wire 1 '# _C1 $end
$var wire 1 (# T7 $end
$var wire 1 )# T4 $end
$var wire 1 *# M6 $end
$var wire 1 +# M5 $end
$var wire 1 ,# F9 $end
$var wire 1 -# F8 $end
$var wire 1 .# F7 $end
$var wire 1 /# F6 $end
$var wire 1 0# F5 $end
$var wire 1 1# F4 $end
$var wire 1 2# F3 $end
$var wire 1 3# F28 $end
$var wire 1 4# F27 $end
$var wire 1 5# F26 $end
$var wire 1 6# F25 $end
$var wire 1 7# F24 $end
$var wire 1 8# F23 $end
$var wire 1 9# F22 $end
$var wire 1 :# F21 $end
$var wire 1 ;# F20 $end
$var wire 1 <# F2 $end
$var wire 1 =# F15 $end
$var wire 1 ># F14 $end
$var wire 1 ?# F12 $end
$var wire 1 @# F11 $end
$var wire 1 A# F10 $end
$var wire 1 B# F1 $end
$var wire 1 C# C2 $end
$var wire 1 D# C1 $end
$var reg 1 E# S1 $end
$var reg 1 F# S2 $end
$var reg 1 G# S3 $end
$var reg 1 H# S4 $end
$var reg 1 I# S6 $end
$var reg 1 J# Z1 $end
$var reg 1 K# Z2 $end
$var reg 1 L# Z3 $end
$var reg 1 M# _S20 $end
$var reg 1 N# _S21 $end
$var reg 1 O# _S22 $end
$var reg 1 P# _S23 $end
$var reg 1 Q# _S24 $end
$var reg 1 R# _S25 $end
$var reg 1 S# _S26 $end
$var reg 1 T# _S27 $end
$var reg 1 U# _S28 $end
$var reg 1 V# _S29 $end
$var reg 1 W# _S30 $end
$var reg 1 X# _W2 $end
$var reg 7 Y# adr [6:0] $end
$scope module M10 $end
$var wire 1 J# CLK $end
$var wire 1 Z# CLR $end
$var wire 1 [# J $end
$var wire 1 \# PRE $end
$var wire 1 j" _Q $end
$var wire 1 i" K $end
$var reg 1 )# Q $end
$var reg 1 ]# mQ $end
$upscope $end
$scope module M105 $end
$var wire 1 J# CLK $end
$var wire 1 ^# CLR $end
$var wire 1 _# J $end
$var wire 1 `# K $end
$var wire 1 a# PRE $end
$var wire 1 "# _Q $end
$var reg 1 ?# Q $end
$var reg 1 b# mQ $end
$upscope $end
$scope module M11 $end
$var wire 1 J# CLK $end
$var wire 1 c# CLR $end
$var wire 1 d# J $end
$var wire 1 ^" K $end
$var wire 1 X# PRE $end
$var wire 1 l" _Q $end
$var reg 1 +# Q $end
$var reg 1 e# mQ $end
$upscope $end
$scope module M112_1 $end
$var wire 1 J# CLK $end
$var wire 1 f# CLR $end
$var wire 1 T" J $end
$var wire 1 _" K $end
$var wire 1 ## _Q $end
$var reg 1 @# Q $end
$var reg 1 g# mQ $end
$upscope $end
$scope module M112_2 $end
$var wire 1 J# CLK $end
$var wire 1 X# CLR $end
$var wire 1 R" J $end
$var wire 1 P" K $end
$var wire 1 !# _Q $end
$var reg 1 ># Q $end
$var reg 1 h# mQ $end
$upscope $end
$scope module M12 $end
$var wire 1 J# CLK $end
$var wire 1 X# CLR $end
$var wire 1 U" J $end
$var wire 1 `" K $end
$var wire 1 i# PRE $end
$var wire 1 k" _Q $end
$var reg 1 *# Q $end
$var reg 1 j# mQ $end
$upscope $end
$scope module M126 $end
$var wire 1 J# CLK $end
$var wire 1 k# CLR $end
$var wire 1 l# J $end
$var wire 1 m# K $end
$var wire 1 n# PRE $end
$var wire 1 ~" _Q $end
$var reg 1 =# Q $end
$var reg 1 o# mQ $end
$upscope $end
$scope module M127 $end
$var wire 1 u CLK $end
$var wire 1 p# CLR $end
$var wire 1 q# PRE $end
$var wire 1 u" _Q $end
$var wire 1 t" K $end
$var wire 1 3# J $end
$var reg 1 4# Q $end
$var reg 1 r# mQ $end
$upscope $end
$scope module M128_1 $end
$var wire 1 u CLK $end
$var wire 1 s# CLR $end
$var wire 1 t# PRE $end
$var wire 1 z" _Q $end
$var wire 1 y" D $end
$var reg 1 9# Q $end
$upscope $end
$scope module M128_2 $end
$var wire 1 u CLK $end
$var wire 1 u# CLR $end
$var wire 1 z" D $end
$var wire 1 v# PRE $end
$var wire 1 {" _Q $end
$var reg 1 :# Q $end
$upscope $end
$scope module M129_1 $end
$var wire 1 u CLK $end
$var wire 1 w# CLR $end
$var wire 1 x# PRE $end
$var wire 1 x" _Q $end
$var wire 1 w" D $end
$var reg 1 7# Q $end
$upscope $end
$scope module M129_2 $end
$var wire 1 u CLK $end
$var wire 1 y# CLR $end
$var wire 1 x" D $end
$var wire 1 z# PRE $end
$var wire 1 y" _Q $end
$var reg 1 8# Q $end
$upscope $end
$scope module M13 $end
$var wire 1 J# CLK $end
$var wire 1 {# CLR $end
$var wire 1 V" J $end
$var wire 1 a" K $end
$var wire 1 X# PRE $end
$var wire 1 &# _Q $end
$var reg 1 C# Q $end
$var reg 1 |# mQ $end
$upscope $end
$scope module M130_1 $end
$var wire 1 u CLK $end
$var wire 1 }# CLR $end
$var wire 1 u" D $end
$var wire 1 ~# PRE $end
$var wire 1 v" _Q $end
$var reg 1 5# Q $end
$upscope $end
$scope module M130_2 $end
$var wire 1 u CLK $end
$var wire 1 !$ CLR $end
$var wire 1 v" D $end
$var wire 1 "$ PRE $end
$var wire 1 w" _Q $end
$var reg 1 6# Q $end
$upscope $end
$scope module M131_1 $end
$var wire 1 J# CLK $end
$var wire 1 #$ CLR $end
$var wire 1 Q" D $end
$var wire 1 $$ PRE $end
$var wire 1 |" _Q $end
$var reg 1 ;# Q $end
$upscope $end
$scope module M131_2 $end
$var wire 1 N" CLK $end
$var wire 1 %$ CLR $end
$var wire 1 |" D $end
$var wire 1 &$ PRE $end
$var wire 1 t" _Q $end
$var reg 1 3# Q $end
$upscope $end
$scope module M14 $end
$var wire 1 J# CLK $end
$var wire 1 '$ CLR $end
$var wire 1 W" J $end
$var wire 1 b" K $end
$var wire 1 X# PRE $end
$var wire 1 '# _Q $end
$var reg 1 D# Q $end
$var reg 1 ($ mQ $end
$upscope $end
$scope module M58 $end
$var wire 1 J# CLK $end
$var wire 1 M# CLR $end
$var wire 1 )$ J $end
$var wire 1 *$ K $end
$var wire 1 U# PRE $end
$var wire 1 n" _Q $end
$var reg 1 -# Q $end
$var reg 1 +$ mQ $end
$upscope $end
$scope module M59 $end
$var wire 1 J# CLK $end
$var wire 1 M# CLR $end
$var wire 1 ,$ J $end
$var wire 1 -$ K $end
$var wire 1 T# PRE $end
$var wire 1 o" _Q $end
$var reg 1 .# Q $end
$var reg 1 .$ mQ $end
$upscope $end
$scope module M60 $end
$var wire 1 J# CLK $end
$var wire 1 M# CLR $end
$var wire 1 X" J $end
$var wire 1 /$ K $end
$var wire 1 S# PRE $end
$var wire 1 p" _Q $end
$var reg 1 /# Q $end
$var reg 1 0$ mQ $end
$upscope $end
$scope module M61 $end
$var wire 1 J# CLK $end
$var wire 1 M# CLR $end
$var wire 1 1$ J $end
$var wire 1 2$ K $end
$var wire 1 R# PRE $end
$var wire 1 q" _Q $end
$var reg 1 0# Q $end
$var reg 1 3$ mQ $end
$upscope $end
$scope module M62 $end
$var wire 1 J# CLK $end
$var wire 1 M# CLR $end
$var wire 1 4$ J $end
$var wire 1 5$ K $end
$var wire 1 Q# PRE $end
$var wire 1 r" _Q $end
$var reg 1 1# Q $end
$var reg 1 6$ mQ $end
$upscope $end
$scope module M63_1 $end
$var wire 1 J# CLK $end
$var wire 1 M# CLR $end
$var wire 1 Y" J $end
$var wire 1 c" K $end
$var wire 1 }" _Q $end
$var reg 1 <# Q $end
$var reg 1 7$ mQ $end
$upscope $end
$scope module M63_2 $end
$var wire 1 J# CLK $end
$var wire 1 M# CLR $end
$var wire 1 Z" J $end
$var wire 1 d" K $end
$var wire 1 s" _Q $end
$var reg 1 2# Q $end
$var reg 1 8$ mQ $end
$upscope $end
$scope module M64 $end
$var wire 1 J# CLK $end
$var wire 1 M# CLR $end
$var wire 1 [" J $end
$var wire 1 e" K $end
$var wire 1 N# PRE $end
$var wire 1 %# _Q $end
$var reg 1 B# Q $end
$var reg 1 9$ mQ $end
$upscope $end
$scope module M9 $end
$var wire 1 J# CLK $end
$var wire 1 :$ CLR $end
$var wire 1 ;$ J $end
$var wire 1 <$ K $end
$var wire 1 =$ PRE $end
$var wire 1 i" _Q $end
$var reg 1 (# Q $end
$var reg 1 >$ mQ $end
$upscope $end
$scope module M97_1 $end
$var wire 1 J# CLK $end
$var wire 1 ?$ CLR $end
$var wire 1 \" J $end
$var wire 1 f" K $end
$var wire 1 m" _Q $end
$var reg 1 ,# Q $end
$var reg 1 @$ mQ $end
$upscope $end
$scope module M97_2 $end
$var wire 1 J# CLK $end
$var wire 1 A$ CLR $end
$var wire 1 ]" J $end
$var wire 1 g" K $end
$var wire 1 $# _Q $end
$var reg 1 A# Q $end
$var reg 1 B$ mQ $end
$upscope $end
$upscope $end
$enddefinitions $end
$comment Show the parameter values. $end
$dumpall
$end
#0
$dumpvars
0B$
1A$
0@$
1?$
0>$
1=$
0<$
0;$
1:$
09$
08$
07$
06$
15$
04$
03$
x2$
x1$
00$
1/$
0.$
1-$
0,$
0+$
x*$
x)$
1($
1'$
1&$
1%$
1$$
1#$
1"$
1!$
1~#
1}#
1|#
1{#
1z#
1y#
1x#
1w#
1v#
1u#
1t#
1s#
0r#
1q#
1p#
0o#
1n#
0m#
0l#
1k#
0j#
1i#
0h#
0g#
1f#
1e#
0d#
1c#
0b#
1a#
0`#
0_#
1^#
0]#
1\#
0[#
1Z#
b0 Y#
0X#
1W#
1V#
1U#
1T#
1S#
1R#
1Q#
1P#
1O#
1N#
1M#
0L#
0K#
1J#
1I#
0H#
0G#
0F#
0E#
1D#
1C#
0B#
0A#
0@#
0?#
0>#
0=#
0<#
0;#
0:#
09#
08#
07#
06#
05#
04#
13#
02#
01#
00#
0/#
0.#
0-#
0,#
1+#
0*#
0)#
0(#
0'#
0&#
1%#
1$#
1##
1"#
1!#
1~"
1}"
1|"
1{"
1z"
1y"
1x"
1w"
1v"
1u"
0t"
1s"
1r"
1q"
1p"
1o"
1n"
1m"
0l"
1k"
1j"
1i"
0h"
1g"
1f"
0e"
1d"
1c"
0b"
0a"
0`"
0_"
0^"
0]"
0\"
0["
1Z"
0Y"
0X"
0W"
0V"
0U"
xT"
xS"
0R"
0Q"
0P"
0O"
0N"
1M"
1L"
0K"
1J"
0I"
zH"
zG"
zF"
zE"
zD"
zC"
1B"
zA"
z@"
1?"
1>"
1="
1<"
1;"
1:"
19"
18"
17"
16"
15"
14"
13"
12"
11"
10"
1/"
1."
1-"
1,"
1+"
1*"
1)"
1("
1'"
1&"
0%"
1$"
0#"
1""
1!"
1~
0}
1|
0{
1z
0y
0x
1w
1v
1u
0t
1s
zr
zq
zp
zo
zn
zm
zl
0k
zj
0i
0h
0g
0f
0e
0d
0c
0b
0a
0`
1_
0^
0]
0\
0[
0Z
0Y
zX
0W
1V
0U
1T
zS
zR
zQ
zP
zO
zN
zM
zL
zK
0J
0I
0H
0G
0F
1E
0D
0C
0B
1A
0@
1?
0>
0=
1<
1;
1:
09
18
17
06
15
04
03
02
01
00
1/
0.
1-
1,
0+
0*
1)
1(
1'
1&
1%
1$
0#
1"
0!
$end
#1
0f"
0g"
0,
1x
05
1X#
#2
0v"
0w"
0x"
0y"
0z"
0{"
1N"
15#
16#
17#
18#
19#
1:#
0u
1K"
b1 Y#
0J#
#10
0N"
1r#
1u
18$
0K"
1J#
#12
1O"
13
11
0c"
1{"
1z"
1y"
1x"
1w"
0u"
0/
0-
1Y"
1N"
0:#
09#
08#
07#
06#
14#
1{
1y
0u
0s"
12#
1K"
0J#
#20
0N"
1u
17$
08$
0K"
1J#
#22
0O"
01
03
1c"
1v"
0x"
0y"
0z"
0{"
08
0/
0-
0Y"
1N"
05#
17#
18#
19#
1:#
1#"
19
1{
1y
0u
0:
0$"
0}"
1%"
1s"
1<#
02#
1K"
0J#
#30
0N"
1u
18$
07$
0K"
1J#
#32
1O"
11
0c"
13
1{"
1z"
1y"
0w"
1Y"
18
1N"
0:#
09#
08#
16#
0#"
09
0u
1:
1$"
0s"
1}"
0%"
12#
0<#
1K"
0J#
#40
0N"
1u
17$
08$
0K"
1J#
#42
0O"
01
03
1c"
1x"
0z"
0{"
08
0/
0-
0Y"
1N"
07#
19#
1:#
1#"
19
1{
1y
0u
0:
0$"
0}"
1%"
1s"
1<#
02#
1K"
0J#
#50
0N"
1u
18$
07$
0K"
1J#
#52
1O"
11
0c"
13
1{"
0y"
1Y"
18
1N"
0:#
18#
0#"
09
0u
1:
1$"
0s"
1}"
0%"
12#
0<#
1K"
0J#
#60
0N"
1u
17$
08$
0K"
1J#
#62
0O"
01
03
1c"
1z"
08
0/
0-
0Y"
1N"
09#
1#"
19
1{
1y
0u
0:
0$"
0}"
1%"
1s"
1<#
02#
1K"
0J#
#70
0N"
1u
18$
07$
0K"
1J#
#72
1O"
11
0c"
13
0{"
1Y"
18
1N"
1:#
0#"
09
0u
1:
1$"
0s"
1}"
0%"
12#
0<#
1K"
0J#
#80
0N"
1u
17$
08$
0K"
1J#
#82
0O"
01
03
1c"
08
0/
0-
0Y"
1N"
1#"
19
1{
1y
0u
0:
0$"
0}"
1%"
1s"
1<#
02#
1K"
0J#
#90
0N"
1u
18$
07$
0K"
1J#
#92
1O"
11
0c"
13
1Y"
18
1N"
0#"
09
0u
1:
1$"
0s"
1}"
0%"
12#
0<#
1K"
0J#
#100
0N"
1u
17$
08$
0K"
1J#
#102
0O"
01
03
1c"
08
0/
0-
0Y"
1N"
1#"
19
1{
1y
0u
0:
0$"
0}"
1%"
1s"
1<#
02#
1K"
0J#
#110
0N"
1u
18$
07$
0K"
1J#
#112
1O"
11
0c"
13
1Y"
18
1N"
0#"
09
0u
1:
1$"
0s"
1}"
0%"
12#
0<#
1K"
0J#
#120
0N"
1u
17$
08$
0K"
1J#
#122
0O"
01
03
1c"
08
0/
0-
0Y"
1N"
1#"
19
1{
1y
0u
0:
0$"
0}"
1%"
1s"
1<#
02#
1K"
0J#
#130
0N"
1u
18$
07$
0K"
1J#
#132
1O"
11
0c"
13
1Y"
18
1N"
0#"
09
0u
1:
1$"
0s"
1}"
0%"
12#
0<#
1K"
0J#
#140
0N"
1u
17$
08$
0K"
1J#
#142
0O"
01
03
1c"
08
0/
0-
0Y"
1N"
1#"
19
1{
1y
0u
0:
0$"
0}"
1%"
1s"
1<#
02#
1K"
0J#
#150
0N"
1u
18$
07$
0K"
1J#
#152
1O"
11
0c"
13
1Y"
18
1N"
0#"
09
0u
1:
1$"
0s"
1}"
0%"
12#
0<#
1K"
0J#
#160
0N"
1u
17$
08$
0K"
1J#
#162
0O"
01
03
1c"
08
0/
0-
0Y"
1N"
1#"
19
1{
1y
0u
0:
0$"
0}"
1%"
1s"
1<#
02#
1K"
0J#
#170
0N"
1u
18$
07$
0K"
1J#
#172
1O"
11
0c"
13
1Y"
18
1N"
0#"
09
0u
1:
1$"
0s"
1}"
0%"
12#
0<#
1K"
0J#
#180
0N"
1u
17$
08$
0K"
1J#
#182
0O"
01
03
1c"
08
0/
0-
0Y"
1N"
1#"
19
1{
1y
0u
0:
0$"
0}"
1%"
1s"
1<#
02#
1K"
0J#
#190
0N"
1u
18$
07$
0K"
1J#
#192
1O"
11
0c"
13
1Y"
18
1N"
0#"
09
0u
1:
1$"
0s"
1}"
0%"
12#
0<#
1K"
0J#
#200
0N"
1u
17$
08$
0K"
1J#
#202
0O"
01
03
1c"
08
0/
0-
0Y"
1N"
1#"
19
1{
1y
0u
0:
0$"
0}"
1%"
1s"
1<#
02#
1K"
0J#
#210
0N"
1u
18$
07$
0K"
1J#
#212
1O"
11
0c"
13
1Y"
18
1N"
0#"
09
0u
1:
1$"
0s"
1}"
0%"
12#
0<#
1K"
0J#
#220
0N"
1u
17$
08$
0K"
1J#
#222
0O"
01
03
1c"
08
0/
0-
0Y"
1N"
1#"
19
1{
1y
0u
0:
0$"
0}"
1%"
1s"
1<#
02#
1K"
0J#
#230
0N"
1u
18$
07$
0K"
1J#
#232
1O"
11
0c"
13
1Y"
18
1N"
0#"
09
0u
1:
1$"
0s"
1}"
0%"
12#
0<#
1K"
0J#
#240
0N"
1u
17$
08$
0K"
1J#
#242
0O"
01
03
1c"
08
0/
0-
0Y"
1N"
1#"
19
1{
1y
0u
0:
0$"
0}"
1%"
1s"
1<#
02#
1K"
0J#
#250
0N"
1u
18$
07$
0K"
1J#
#252
1O"
11
0c"
13
1Y"
18
1N"
0#"
09
0u
1:
1$"
0s"
1}"
0%"
12#
0<#
1K"
0J#
#260
0N"
1u
17$
08$
0K"
1J#
#262
0O"
01
03
1c"
08
0/
0-
0Y"
1N"
1#"
19
1{
1y
0u
0:
0$"
0}"
1%"
1s"
1<#
02#
1K"
0J#
#270
0N"
1u
18$
07$
0K"
1J#
#272
1O"
11
0c"
13
1Y"
18
1N"
0#"
09
0u
1:
1$"
0s"
1}"
0%"
12#
0<#
1K"
0J#
#280
0N"
1u
17$
08$
0K"
1J#
#282
0O"
01
03
1c"
08
0/
0-
0Y"
1N"
1#"
19
1{
1y
0u
0:
0$"
0}"
1%"
1s"
1<#
02#
1K"
0J#
#290
0N"
1u
18$
07$
0K"
1J#
#292
1O"
11
0c"
13
1Y"
18
1N"
0#"
09
0u
1:
1$"
0s"
1}"
0%"
12#
0<#
1K"
0J#
#300
0N"
1u
17$
08$
0K"
1J#
#302
0O"
01
03
1c"
08
0/
0-
0Y"
1N"
1#"
19
1{
1y
0u
0:
0$"
0}"
1%"
1s"
1<#
02#
1K"
0J#
#310
0N"
1u
18$
07$
0K"
1J#
#312
1O"
11
0c"
13
1Y"
18
1N"
0#"
09
0u
1:
1$"
0s"
1}"
0%"
12#
0<#
1K"
0L"
1;$
0J#
1K#
#320
0N"
1u
17$
08$
1>$
0K"
1J#
#322
0O"
01
03
1c"
08
0/
0-
0Y"
1N"
1#"
19
1{
1y
0u
0:
0$"
0}"
1%"
1s"
0i"
1<#
02#
1(#
1K"
0M"
0J#
1L#
#330
0N"
1u
18$
07$
0K"
1J#
#332
1O"
11
xT"
0c"
13
1Y"
18
1N"
0#"
09
0u
1:
1$"
0s"
1}"
0%"
12#
0<#
1K"
1M"
0J#
0L#
#340
0N"
1u
17$
08$
0K"
1J#
#342
0O"
01
03
1c"
08
0/
0-
0Y"
1N"
1#"
19
1{
1y
0u
0:
0$"
0}"
1%"
1s"
1[#
1<#
02#
1K"
1L"
0;$
0J#
0K#
#350
0N"
1u
1]#
18$
07$
0K"
1J#
#352
1O"
11
0c"
13
1Y"
18
1N"
0#"
09
0u
1:
1$"
0j"
0s"
1}"
0%"
1)#
12#
0<#
1K"
0J#
#360
0N"
1u
17$
08$
0K"
1J#
#362
0O"
01
03
1c"
08
0/
0-
0Y"
1N"
1#"
19
1{
1y
0u
0:
0$"
0}"
1%"
1s"
1<#
02#
1K"
0J#
#370
0N"
1u
18$
07$
0K"
1J#
#372
1O"
11
0c"
13
1Y"
18
1N"
0#"
09
0u
1:
1$"
0s"
1}"
0%"
12#
0<#
1K"
0J#
#380
0N"
1u
17$
08$
0K"
1J#
#382
0O"
01
03
1c"
08
0/
0-
0Y"
1N"
1#"
19
1{
1y
0u
0:
0$"
0}"
1%"
1s"
0[#
1<#
02#
1K"
0L"
1<$
0J#
1K#
#390
0N"
1u
0>$
18$
07$
0K"
1J#
#392
1=
1O"
11
0'"
0c"
13
1t
1Y"
18
1N"
0J"
1^"
1a"
0#"
09
0u
1:
1$"
1i"
0s"
1}"
0%"
0(#
12#
0<#
1K"
0J#
#400
0N"
1u
0|#
17$
08$
0e#
0]#
0K"
1J#
#402
1f"
1g"
x)$
x*$
xS"
1,
0x
x$
0O"
01
15
03
1c"
1C
08
0=
0/
0-
0Y"
1N"
0("
1#"
1'"
19
1{
1y
0s
0t
0u
0:
0$"
1I"
1J"
0^"
0a"
1&#
0}"
1%"
1s"
1l"
1j"
0C#
1<#
02#
0+#
0)#
1K"
1L"
0<$
0J#
b10 Y#
0K#
#410
18$
07$
0K"
1J#
#412
1O"
11
0c"
13
1Y"
18
0#"
09
1:
1$"
0s"
1}"
0%"
12#
0<#
1K"
0J#
#420
17$
08$
0K"
1J#
#422
0O"
01
03
1c"
08
0/
0-
0Y"
1#"
19
1{
1y
0:
0$"
0}"
1%"
1s"
1<#
02#
1K"
0J#
#430
18$
07$
0K"
1J#
#432
1O"
11
0c"
13
1Y"
18
0#"
09
1:
1$"
0s"
1}"
0%"
12#
0<#
1K"
0J#
#440
17$
08$
0K"
1J#
#442
0O"
01
03
1c"
08
0/
0-
0Y"
1#"
19
1{
1y
0:
0$"
0}"
1%"
1s"
1<#
02#
1K"
0J#
#450
18$
07$
0K"
1J#
#452
1O"
11
0c"
13
1Y"
18
0#"
09
1:
1$"
0s"
1}"
0%"
12#
0<#
1K"
0J#
#460
17$
08$
0K"
1J#
#462
0O"
01
03
1c"
08
0/
0-
0Y"
1#"
19
1{
1y
0:
0$"
0}"
1%"
1s"
1<#
02#
1K"
0J#
#470
18$
07$
0K"
1J#
#472
1O"
11
0c"
13
1Y"
18
0#"
09
1:
1$"
0s"
1}"
0%"
12#
0<#
1K"
0J#
#480
17$
08$
0K"
1J#
#482
0O"
01
03
1c"
08
0/
0-
0Y"
1#"
19
1{
1y
0:
0$"
0}"
1%"
1s"
1<#
02#
1K"
0J#
#490
18$
07$
0K"
1J#
#492
1O"
11
0c"
13
1Y"
18
0#"
09
1:
1$"
0s"
1}"
0%"
12#
0<#
1K"
0J#
#500
17$
08$
0K"
1J#
#502
0O"
01
03
1c"
08
0/
0-
0Y"
1#"
19
1{
1y
0:
0$"
0}"
1%"
1s"
1<#
02#
1K"
0J#
#510
18$
07$
0K"
1J#
#512
1O"
11
0c"
13
1Y"
18
0#"
09
1:
1$"
0s"
1}"
0%"
12#
0<#
1K"
0J#
#520
17$
08$
0K"
1J#
#522
0O"
01
03
1c"
08
0/
0-
0Y"
1#"
19
1{
1y
0:
0$"
0}"
1%"
1s"
1<#
02#
1K"
0J#
#530
18$
07$
0K"
1J#
#532
1O"
11
0c"
13
1Y"
18
0#"
09
1:
1$"
0s"
1}"
0%"
12#
0<#
1K"
0J#
#540
17$
08$
0K"
1J#
#542
0O"
01
03
1c"
08
0/
0-
0Y"
1#"
19
1{
1y
0:
0$"
0}"
1%"
1s"
1<#
02#
1K"
0J#
#550
18$
07$
0K"
1J#
#552
1O"
11
0c"
13
1Y"
18
0#"
09
1:
1$"
0s"
1}"
0%"
12#
0<#
1K"
0J#
#560
17$
08$
0K"
1J#
#562
0O"
01
03
1c"
08
0/
0-
0Y"
1#"
19
1{
1y
0:
0$"
0}"
1%"
1s"
1<#
02#
1K"
0J#
#570
18$
07$
0K"
1J#
#572
1O"
11
0c"
13
1Y"
18
0#"
09
1:
1$"
0s"
1}"
0%"
12#
0<#
1K"
0J#
#580
17$
08$
0K"
1J#
#582
0O"
01
03
1c"
08
0/
0-
0Y"
1#"
19
1{
1y
0:
0$"
0}"
1%"
1s"
1<#
02#
1K"
0J#
#590
18$
07$
0K"
1J#
#592
1O"
11
0c"
13
1Y"
18
0#"
09
1:
1$"
0s"
1}"
0%"
12#
0<#
1K"
0J#
#600
17$
08$
0K"
1J#
#602
0O"
01
03
1c"
08
0/
0-
0Y"
1#"
19
1{
1y
0:
0$"
0}"
1%"
1s"
1<#
02#
1K"
0J#
#610
18$
07$
0K"
1J#
#612
1O"
11
0c"
13
1Y"
18
0#"
09
1:
1$"
0s"
1}"
0%"
12#
0<#
1K"
0J#
#620
17$
08$
0K"
1J#
