Litton-tb.vcd
$date
	Mon Oct 13 00:40:49 2025
$end
$version
	Icarus Verilog
$end
$timescale
	100ns
$end
$scope module Litton_tb $end
$var wire 1 ! A1 $end
$var wire 1 " A10 $end
$var wire 1 # A11 $end
$var wire 1 $ A12 $end
$var wire 1 % A13 $end
$var wire 1 & A14 $end
$var wire 1 ' A15 $end
$var wire 1 ( A16 $end
$var wire 1 ) A17 $end
$var wire 1 * A18 $end
$var wire 1 + A19 $end
$var wire 1 , A2 $end
$var wire 1 - A20 $end
$var wire 1 . A21 $end
$var wire 1 / A22 $end
$var wire 1 0 A23 $end
$var wire 1 1 A24 $end
$var wire 1 2 A25 $end
$var wire 1 3 A26 $end
$var wire 1 4 A27 $end
$var wire 1 5 A3 $end
$var wire 1 6 A35 $end
$var wire 1 7 A36 $end
$var wire 1 8 A37 $end
$var wire 1 9 A38 $end
$var wire 1 : A39 $end
$var wire 1 ; A4 $end
$var wire 1 < A5 $end
$var wire 1 = A6 $end
$var wire 1 > A7 $end
$var wire 1 ? A8 $end
$var wire 1 @ A9 $end
$var wire 1 A C101 $end
$var wire 1 B C130 $end
$var wire 1 C C20 $end
$var wire 1 D C30 $end
$var wire 1 E C37 $end
$var wire 1 F C39 $end
$var wire 1 G C40 $end
$var wire 1 H C49 $end
$var wire 1 I F101 $end
$var wire 1 J F104 $end
$var wire 1 K F106 $end
$var wire 1 L K0 $end
$var wire 1 M K1 $end
$var wire 1 N K13 $end
$var wire 1 O K14 $end
$var wire 1 P K2 $end
$var wire 1 Q K22 $end
$var wire 1 R K27 $end
$var wire 1 S K28 $end
$var wire 1 T K34 $end
$var wire 1 U K35 $end
$var wire 1 V K37 $end
$var wire 1 W K40 $end
$var wire 1 X K41 $end
$var wire 1 Y K42 $end
$var wire 1 Z K43 $end
$var wire 1 [ K46 $end
$var wire 1 \ K5 $end
$var wire 1 ] K50 $end
$var wire 1 ^ K51 $end
$var wire 1 _ K6 $end
$var wire 1 ` K7 $end
$var wire 1 a K87 $end
$var wire 1 b K9 $end
$var wire 1 c K90 $end
$var wire 1 d K92 $end
$var wire 1 e K94 $end
$var wire 1 f L11 $end
$var wire 1 g L21 $end
$var wire 1 h L31 $end
$var wire 1 i L41 $end
$var wire 1 j L50 $end
$var wire 1 k L51 $end
$var wire 1 l L53 $end
$var wire 1 m L60 $end
$var wire 1 n L91 $end
$var wire 1 o M1 $end
$var wire 1 p T39 $end
$var wire 1 q Z4 $end
$var wire 1 r _A11 $end
$var wire 1 s _A18 $end
$var wire 1 t _A2 $end
$var wire 1 u _A20 $end
$var wire 1 v _A21 $end
$var wire 1 w _A22 $end
$var wire 1 x _A23 $end
$var wire 1 y _A24 $end
$var wire 1 z _A25 $end
$var wire 1 { _A26 $end
$var wire 1 | _A27 $end
$var wire 1 } _A30 $end
$var wire 1 ~ _A31 $end
$var wire 1 !" _A32 $end
$var wire 1 "" _A33 $end
$var wire 1 #" _A37 $end
$var wire 1 $" _A38 $end
$var wire 1 %" _A39 $end
$var wire 1 &" _A4 $end
$var wire 1 '" _A6 $end
$var wire 1 (" _C20 $end
$var wire 1 )" _C30 $end
$var wire 1 *" _C37 $end
$var wire 1 +" _C39 $end
$var wire 1 ," _C40 $end
$var wire 1 -" _C49 $end
$var wire 1 ." _F101 $end
$var wire 1 /" _F104 $end
$var wire 1 0" _K1 $end
$var wire 1 1" _K14 $end
$var wire 1 2" _K150 $end
$var wire 1 3" _K2 $end
$var wire 1 4" _K22 $end
$var wire 1 5" _K27 $end
$var wire 1 6" _K28 $end
$var wire 1 7" _K34 $end
$var wire 1 8" _K35 $end
$var wire 1 9" _K40 $end
$var wire 1 :" _K41 $end
$var wire 1 ;" _K42 $end
$var wire 1 <" _K43 $end
$var wire 1 =" _K5 $end
$var wire 1 >" _K50 $end
$var wire 1 ?" _K51 $end
$var wire 1 @" _K6 $end
$var wire 1 A" _K73 $end
$var wire 1 B" _K80 $end
$var wire 1 C" _K82 $end
$var wire 1 D" _K83 $end
$var wire 1 E" _K9 $end
$var wire 1 F" _K90 $end
$var wire 1 G" _K93 $end
$var wire 1 H" _L19 $end
$var wire 1 I" _L31 $end
$var wire 1 J" _L41 $end
$var wire 1 K" _L50 $end
$var wire 1 L" _L51 $end
$var wire 1 M" _L53 $end
$var wire 1 N" _L60 $end
$var wire 1 O" _L91 $end
$var wire 1 P" _M1 $end
$var wire 1 Q" _T39 $end
$var wire 1 R" _Z1 $end
$var wire 1 S" _Z2 $end
$var wire 1 T" _Z3 $end
$var wire 1 U" _Z4 $end
$var wire 1 V" drum_BI_1 $end
$var wire 1 W" drum_BI_2 $end
$var wire 1 X" drum_GS_1 $end
$var wire 1 Y" drum_GS_2 $end
$var wire 1 Z" drum_S_1 $end
$var wire 1 [" drum_S_2 $end
$var wire 1 \" halt $end
$var wire 1 ]" ready $end
$var wire 1 ^" run $end
$var wire 1 _" tmp_C $end
$var wire 1 `" tmp_D $end
$var wire 1 a" tmp_D_M131_1 $end
$var wire 1 b" tmp_E $end
$var wire 1 c" tmp_F $end
$var wire 1 d" tmp_G $end
$var wire 1 e" tmp_H $end
$var wire 1 f" tmp_I $end
$var wire 1 g" tmp_J $end
$var wire 1 h" tmp_JK_M146 $end
$var wire 1 i" tmp_JK_M58 $end
$var wire 1 j" tmp_J_M112_1 $end
$var wire 1 k" tmp_J_M12 $end
$var wire 1 l" tmp_J_M13 $end
$var wire 1 m" tmp_J_M14 $end
$var wire 1 n" tmp_J_M60 $end
$var wire 1 o" tmp_J_M63_1 $end
$var wire 1 p" tmp_J_M63_2 $end
$var wire 1 q" tmp_J_M64 $end
$var wire 1 r" tmp_J_M97_1 $end
$var wire 1 s" tmp_J_M97_2 $end
$var wire 1 t" tmp_K $end
$var wire 1 u" tmp_K_M11 $end
$var wire 1 v" tmp_K_M112_1 $end
$var wire 1 w" tmp_K_M12 $end
$var wire 1 x" tmp_K_M13 $end
$var wire 1 y" tmp_K_M14 $end
$var wire 1 z" tmp_K_M63_1 $end
$var wire 1 {" tmp_K_M63_2 $end
$var wire 1 |" tmp_K_M64 $end
$var wire 1 }" tmp_K_M97_1 $end
$var wire 1 ~" tmp_K_M97_2 $end
$var wire 1 !# tmp_M $end
$var wire 1 "# tmp_M141_D $end
$var wire 1 ## tmp_M87 $end
$var wire 1 $# tmp_M158_D $end
$var wire 1 %# tmp_M157_D $end
$var wire 1 &# tmp_M156_D $end
$var wire 1 '# tmp_M155_D $end
$var wire 1 (# tmp_M153_D $end
$var wire 1 )# tmp_M152_D $end
$var wire 1 *# tmp_M151_D $end
$var wire 1 +# tmp_M150_D $end
$var wire 1 ,# tmp_M149_1_D $end
$var wire 1 -# _T7 $end
$var wire 1 .# _T4 $end
$var wire 1 /# _M6 $end
$var wire 1 0# _M5 $end
$var wire 1 1# _L90 $end
$var wire 1 2# _L40 $end
$var wire 1 3# _L39 $end
$var wire 1 4# _L30 $end
$var wire 1 5# _L20 $end
$var wire 1 6# _L10 $end
$var wire 1 7# _K75 $end
$var wire 1 8# _F9 $end
$var wire 1 9# _F8 $end
$var wire 1 :# _F7 $end
$var wire 1 ;# _F6 $end
$var wire 1 <# _F5 $end
$var wire 1 =# _F4 $end
$var wire 1 ># _F3 $end
$var wire 1 ?# _F28 $end
$var wire 1 @# _F27 $end
$var wire 1 A# _F26 $end
$var wire 1 B# _F25 $end
$var wire 1 C# _F24 $end
$var wire 1 D# _F23 $end
$var wire 1 E# _F22 $end
$var wire 1 F# _F21 $end
$var wire 1 G# _F20 $end
$var wire 1 H# _F2 $end
$var wire 1 I# _F15 $end
$var wire 1 J# _F14 $end
$var wire 1 K# _F12 $end
$var wire 1 L# _F11 $end
$var wire 1 M# _F10 $end
$var wire 1 N# _F1 $end
$var wire 1 O# _C2 $end
$var wire 1 P# _C1 $end
$var wire 1 Q# T7 $end
$var wire 1 R# T4 $end
$var wire 1 S# Ob8 $end
$var wire 1 T# Ob7 $end
$var wire 1 U# Ob6 $end
$var wire 1 V# Ob5 $end
$var wire 1 W# Ob4 $end
$var wire 1 X# Ob3 $end
$var wire 1 Y# Ob2 $end
$var wire 1 Z# Ob1 $end
$var wire 1 [# M6 $end
$var wire 1 \# M5 $end
$var wire 1 ]# L90 $end
$var wire 1 ^# L40 $end
$var wire 1 _# L39 $end
$var wire 1 `# L30 $end
$var wire 1 a# L20 $end
$var wire 1 b# L19 $end
$var wire 1 c# L10 $end
$var wire 1 d# K83 $end
$var wire 1 e# K82 $end
$var wire 1 f# K80 $end
$var wire 1 g# K176 $end
$var wire 1 h# K150 $end
$var wire 1 i# Ib108 $end
$var wire 1 j# Ib107 $end
$var wire 1 k# Ib106 $end
$var wire 1 l# Ib105 $end
$var wire 1 m# Ib104 $end
$var wire 1 n# Ib103 $end
$var wire 1 o# Ib102 $end
$var wire 1 p# Ib101 $end
$var wire 1 q# F9 $end
$var wire 1 r# F8 $end
$var wire 1 s# F7 $end
$var wire 1 t# F6 $end
$var wire 1 u# F5 $end
$var wire 1 v# F4 $end
$var wire 1 w# F3 $end
$var wire 1 x# F28 $end
$var wire 1 y# F27 $end
$var wire 1 z# F26 $end
$var wire 1 {# F25 $end
$var wire 1 |# F24 $end
$var wire 1 }# F23 $end
$var wire 1 ~# F22 $end
$var wire 1 !$ F21 $end
$var wire 1 "$ F20 $end
$var wire 1 #$ F2 $end
$var wire 1 $$ F15 $end
$var wire 1 %$ F14 $end
$var wire 1 &$ F12 $end
$var wire 1 '$ F11 $end
$var wire 1 ($ F10 $end
$var wire 1 )$ F1 $end
$var wire 1 *$ C2 $end
$var wire 1 +$ C1 $end
$var reg 1 ,$ Ib1 $end
$var reg 1 -$ Ib2 $end
$var reg 1 .$ Ib3 $end
$var reg 1 /$ Ib4 $end
$var reg 1 0$ Ib5 $end
$var reg 1 1$ Ib6 $end
$var reg 1 2$ Ib7 $end
$var reg 1 3$ Ib8 $end
$var reg 1 4$ K75 $end
$var reg 1 5$ K76 $end
$var reg 1 6$ S1 $end
$var reg 1 7$ S2 $end
$var reg 1 8$ S3 $end
$var reg 1 9$ S4 $end
$var reg 1 :$ S6 $end
$var reg 1 ;$ Z1 $end
$var reg 1 <$ Z2 $end
$var reg 1 =$ Z3 $end
$var reg 1 >$ _S20 $end
$var reg 1 ?$ _S21 $end
$var reg 1 @$ _S22 $end
$var reg 1 A$ _S23 $end
$var reg 1 B$ _S24 $end
$var reg 1 C$ _S25 $end
$var reg 1 D$ _S26 $end
$var reg 1 E$ _S27 $end
$var reg 1 F$ _S28 $end
$var reg 1 G$ _S29 $end
$var reg 1 H$ _S30 $end
$var reg 1 I$ _W2 $end
$var reg 7 J$ adr [6:0] $end
$var reg 1 K$ drum_BI_R $end
$var reg 1 L$ drum_GS_R $end
$var reg 1 M$ drum_S_R $end
$scope module M10 $end
$var wire 1 ;$ CLK $end
$var wire 1 N$ CLR $end
$var wire 1 O$ J $end
$var wire 1 P$ PRE $end
$var wire 1 .# _Q $end
$var wire 1 -# K $end
$var reg 1 R# Q $end
$var reg 1 Q$ mQ $end
$upscope $end
$scope module M105 $end
$var wire 1 ;$ CLK $end
$var wire 1 R$ CLR $end
$var wire 1 S$ J $end
$var wire 1 T$ K $end
$var wire 1 U$ PRE $end
$var wire 1 K# _Q $end
$var reg 1 &$ Q $end
$var reg 1 V$ mQ $end
$upscope $end
$scope module M11 $end
$var wire 1 ;$ CLK $end
$var wire 1 W$ CLR $end
$var wire 1 X$ J $end
$var wire 1 u" K $end
$var wire 1 I$ PRE $end
$var wire 1 0# _Q $end
$var reg 1 \# Q $end
$var reg 1 Y$ mQ $end
$upscope $end
$scope module M112_1 $end
$var wire 1 ;$ CLK $end
$var wire 1 Z$ CLR $end
$var wire 1 j" J $end
$var wire 1 v" K $end
$var wire 1 L# _Q $end
$var reg 1 '$ Q $end
$var reg 1 [$ mQ $end
$upscope $end
$scope module M112_2 $end
$var wire 1 ;$ CLK $end
$var wire 1 I$ CLR $end
$var wire 1 b" J $end
$var wire 1 `" K $end
$var wire 1 J# _Q $end
$var reg 1 %$ Q $end
$var reg 1 \$ mQ $end
$upscope $end
$scope module M12 $end
$var wire 1 ;$ CLK $end
$var wire 1 I$ CLR $end
$var wire 1 k" J $end
$var wire 1 w" K $end
$var wire 1 ]$ PRE $end
$var wire 1 /# _Q $end
$var reg 1 [# Q $end
$var reg 1 ^$ mQ $end
$upscope $end
$scope module M126 $end
$var wire 1 ;$ CLK $end
$var wire 1 _$ CLR $end
$var wire 1 `$ J $end
$var wire 1 a$ K $end
$var wire 1 b$ PRE $end
$var wire 1 I# _Q $end
$var reg 1 $$ Q $end
$var reg 1 c$ mQ $end
$upscope $end
$scope module M127 $end
$var wire 1 q CLK $end
$var wire 1 d$ CLR $end
$var wire 1 e$ PRE $end
$var wire 1 @# _Q $end
$var wire 1 ?# K $end
$var wire 1 x# J $end
$var reg 1 y# Q $end
$var reg 1 f$ mQ $end
$upscope $end
$scope module M128_1 $end
$var wire 1 q CLK $end
$var wire 1 g$ CLR $end
$var wire 1 E# _Q $end
$var wire 1 D# K $end
$var wire 1 }# J $end
$var reg 1 ~# Q $end
$var reg 1 h$ mQ $end
$upscope $end
$scope module M128_2 $end
$var wire 1 q CLK $end
$var wire 1 i$ CLR $end
$var wire 1 ~# J $end
$var wire 1 E# K $end
$var wire 1 F# _Q $end
$var reg 1 !$ Q $end
$var reg 1 j$ mQ $end
$upscope $end
$scope module M129_1 $end
$var wire 1 q CLK $end
$var wire 1 k$ CLR $end
$var wire 1 C# _Q $end
$var wire 1 B# K $end
$var wire 1 {# J $end
$var reg 1 |# Q $end
$var reg 1 l$ mQ $end
$upscope $end
$scope module M129_2 $end
$var wire 1 q CLK $end
$var wire 1 m$ CLR $end
$var wire 1 |# J $end
$var wire 1 C# K $end
$var wire 1 D# _Q $end
$var reg 1 }# Q $end
$var reg 1 n$ mQ $end
$upscope $end
$scope module M13 $end
$var wire 1 ;$ CLK $end
$var wire 1 o$ CLR $end
$var wire 1 l" J $end
$var wire 1 x" K $end
$var wire 1 I$ PRE $end
$var wire 1 O# _Q $end
$var reg 1 *$ Q $end
$var reg 1 p$ mQ $end
$upscope $end
$scope module M130_1 $end
$var wire 1 q CLK $end
$var wire 1 q$ CLR $end
$var wire 1 y# J $end
$var wire 1 @# K $end
$var wire 1 A# _Q $end
$var reg 1 z# Q $end
$var reg 1 r$ mQ $end
$upscope $end
$scope module M130_2 $end
$var wire 1 q CLK $end
$var wire 1 s$ CLR $end
$var wire 1 z# J $end
$var wire 1 A# K $end
$var wire 1 B# _Q $end
$var reg 1 {# Q $end
$var reg 1 t$ mQ $end
$upscope $end
$scope module M131_1 $end
$var wire 1 ;$ CLK $end
$var wire 1 u$ CLR $end
$var wire 1 a" D $end
$var wire 1 v$ PRE $end
$var wire 1 G# _Q $end
$var reg 1 "$ Q $end
$upscope $end
$scope module M131_2 $end
$var wire 1 U" CLK $end
$var wire 1 w$ CLR $end
$var wire 1 G# D $end
$var wire 1 x$ PRE $end
$var wire 1 ?# _Q $end
$var reg 1 x# Q $end
$upscope $end
$scope module M14 $end
$var wire 1 ;$ CLK $end
$var wire 1 y$ CLR $end
$var wire 1 m" J $end
$var wire 1 y" K $end
$var wire 1 I$ PRE $end
$var wire 1 P# _Q $end
$var reg 1 +$ Q $end
$var reg 1 z$ mQ $end
$upscope $end
$scope module M145 $end
$var wire 1 ;$ CLK $end
$var wire 1 {$ CLR $end
$var wire 1 |$ J $end
$var wire 1 }$ K $end
$var wire 1 I$ PRE $end
$var wire 1 6# _Q $end
$var reg 1 c# Q $end
$var reg 1 ~$ mQ $end
$upscope $end
$scope module M146 $end
$var wire 1 ;$ CLK $end
$var wire 1 !% CLR $end
$var wire 1 "% J $end
$var wire 1 #% K $end
$var wire 1 $% PRE $end
$var wire 1 4# _Q $end
$var reg 1 `# Q $end
$var reg 1 %% mQ $end
$upscope $end
$scope module M147_1 $end
$var wire 1 R" CLK $end
$var wire 1 &% CLR $end
$var wire 1 M$ D $end
$var wire 1 '% PRE $end
$var wire 1 3# _Q $end
$var reg 1 _# Q $end
$upscope $end
$scope module M147_2 $end
$var wire 1 R" CLK $end
$var wire 1 (% CLR $end
$var wire 1 L$ D $end
$var wire 1 )% PRE $end
$var wire 1 2# _Q $end
$var reg 1 ^# Q $end
$upscope $end
$scope module M149_1 $end
$var wire 1 R" CLK $end
$var wire 1 *% CLR $end
$var wire 1 I$ PRE $end
$var wire 1 5# _Q $end
$var wire 1 ,# D $end
$var reg 1 a# Q $end
$upscope $end
$scope module M149_2 $end
$var wire 1 ;$ CLK $end
$var wire 1 +% CLR $end
$var wire 1 K$ D $end
$var wire 1 ,% PRE $end
$var wire 1 1# _Q $end
$var reg 1 ]# Q $end
$upscope $end
$scope module M150 $end
$var wire 1 R" CP $end
$var wire 1 -% _Q $end
$var wire 1 b# Q $end
$var wire 1 +# D $end
$var reg 8 .% SR [7:0] $end
$upscope $end
$scope module M151 $end
$var wire 1 ;$ CP $end
$var wire 1 /% _Q $end
$var wire 1 +# Q $end
$var wire 1 *# D $end
$var reg 8 0% SR [7:0] $end
$upscope $end
$scope module M152 $end
$var wire 1 ;$ CP $end
$var wire 1 1% _Q $end
$var wire 1 *# Q $end
$var wire 1 )# D $end
$var reg 8 2% SR [7:0] $end
$upscope $end
$scope module M153 $end
$var wire 1 ;$ CP $end
$var wire 1 3% _Q $end
$var wire 1 )# Q $end
$var wire 1 (# D $end
$var reg 8 4% SR [7:0] $end
$upscope $end
$scope module M154 $end
$var wire 1 ;$ CP $end
$var wire 1 f D $end
$var wire 1 5% _Q $end
$var wire 1 (# Q $end
$var reg 8 6% SR [7:0] $end
$upscope $end
$scope module M155 $end
$var wire 1 ;$ CP $end
$var wire 1 7% _Q $end
$var wire 1 ,# Q $end
$var wire 1 '# D $end
$var reg 8 8% SR [7:0] $end
$upscope $end
$scope module M156 $end
$var wire 1 ;$ CP $end
$var wire 1 9% _Q $end
$var wire 1 '# Q $end
$var wire 1 %# D $end
$var reg 8 :% SR [7:0] $end
$upscope $end
$scope module M157 $end
$var wire 1 ;$ CP $end
$var wire 1 ;% _Q $end
$var wire 1 &# Q $end
$var wire 1 %# D $end
$var reg 8 <% SR [7:0] $end
$upscope $end
$scope module M158 $end
$var wire 1 ;$ CP $end
$var wire 1 =% _Q $end
$var wire 1 %# Q $end
$var wire 1 $# D $end
$var reg 8 >% SR [7:0] $end
$upscope $end
$scope module M159 $end
$var wire 1 ;$ CP $end
$var wire 1 g D $end
$var wire 1 ?% _Q $end
$var wire 1 $# Q $end
$var reg 8 @% SR [7:0] $end
$upscope $end
$scope module M58 $end
$var wire 1 ;$ CLK $end
$var wire 1 >$ CLR $end
$var wire 1 A% J $end
$var wire 1 B% K $end
$var wire 1 F$ PRE $end
$var wire 1 9# _Q $end
$var reg 1 r# Q $end
$var reg 1 C% mQ $end
$upscope $end
$scope module M59 $end
$var wire 1 ;$ CLK $end
$var wire 1 >$ CLR $end
$var wire 1 D% J $end
$var wire 1 E% K $end
$var wire 1 E$ PRE $end
$var wire 1 :# _Q $end
$var reg 1 s# Q $end
$var reg 1 F% mQ $end
$upscope $end
$scope module M60 $end
$var wire 1 ;$ CLK $end
$var wire 1 >$ CLR $end
$var wire 1 n" J $end
$var wire 1 G% K $end
$var wire 1 D$ PRE $end
$var wire 1 ;# _Q $end
$var reg 1 t# Q $end
$var reg 1 H% mQ $end
$upscope $end
$scope module M61 $end
$var wire 1 ;$ CLK $end
$var wire 1 >$ CLR $end
$var wire 1 I% J $end
$var wire 1 J% K $end
$var wire 1 C$ PRE $end
$var wire 1 <# _Q $end
$var reg 1 u# Q $end
$var reg 1 K% mQ $end
$upscope $end
$scope module M62 $end
$var wire 1 ;$ CLK $end
$var wire 1 >$ CLR $end
$var wire 1 L% J $end
$var wire 1 M% K $end
$var wire 1 B$ PRE $end
$var wire 1 =# _Q $end
$var reg 1 v# Q $end
$var reg 1 N% mQ $end
$upscope $end
$scope module M63_1 $end
$var wire 1 ;$ CLK $end
$var wire 1 >$ CLR $end
$var wire 1 o" J $end
$var wire 1 z" K $end
$var wire 1 H# _Q $end
$var reg 1 #$ Q $end
$var reg 1 O% mQ $end
$upscope $end
$scope module M63_2 $end
$var wire 1 ;$ CLK $end
$var wire 1 >$ CLR $end
$var wire 1 p" J $end
$var wire 1 {" K $end
$var wire 1 ># _Q $end
$var reg 1 w# Q $end
$var reg 1 P% mQ $end
$upscope $end
$scope module M64 $end
$var wire 1 ;$ CLK $end
$var wire 1 >$ CLR $end
$var wire 1 q" J $end
$var wire 1 |" K $end
$var wire 1 ?$ PRE $end
$var wire 1 N# _Q $end
$var reg 1 )$ Q $end
$var reg 1 Q% mQ $end
$upscope $end
$scope module M9 $end
$var wire 1 ;$ CLK $end
$var wire 1 R% CLR $end
$var wire 1 S% J $end
$var wire 1 T% K $end
$var wire 1 U% PRE $end
$var wire 1 -# _Q $end
$var reg 1 Q# Q $end
$var reg 1 V% mQ $end
$upscope $end
$scope module M97_1 $end
$var wire 1 ;$ CLK $end
$var wire 1 W% CLR $end
$var wire 1 r" J $end
$var wire 1 }" K $end
$var wire 1 8# _Q $end
$var reg 1 q# Q $end
$var reg 1 X% mQ $end
$upscope $end
$scope module M97_2 $end
$var wire 1 ;$ CLK $end
$var wire 1 Y% CLR $end
$var wire 1 s" J $end
$var wire 1 ~" K $end
$var wire 1 M# _Q $end
$var reg 1 ($ Q $end
$var reg 1 Z% mQ $end
$upscope $end
$upscope $end
$enddefinitions $end
$comment Show the parameter values. $end
$dumpall
$end
#0
$dumpvars
0Z%
1Y%
0X%
1W%
0V%
1U%
0T%
0S%
1R%
0Q%
0P%
0O%
0N%
1M%
0L%
0K%
1J%
0I%
0H%
1G%
0F%
1E%
0D%
0C%
0B%
1A%
b0 @%
1?%
b0 >%
1=%
b0 <%
1;%
b0 :%
19%
b0 8%
17%
b0 6%
15%
b0 4%
13%
b0 2%
11%
b0 0%
1/%
b0 .%
1-%
1,%
1+%
1*%
1)%
1(%
1'%
1&%
0%%
1$%
1#%
0"%
1!%
1~$
1}$
0|$
1{$
1z$
1y$
1x$
1w$
1v$
1u$
0t$
1s$
0r$
1q$
1p$
1o$
0n$
1m$
0l$
1k$
0j$
1i$
0h$
1g$
0f$
1e$
1d$
0c$
1b$
0a$
0`$
1_$
0^$
1]$
0\$
0[$
1Z$
1Y$
0X$
1W$
0V$
1U$
0T$
0S$
1R$
0Q$
1P$
0O$
1N$
0M$
0L$
0K$
b0 J$
0I$
1H$
1G$
1F$
1E$
1D$
1C$
1B$
1A$
1@$
1?$
1>$
0=$
0<$
0;$
1:$
09$
08$
07$
06$
15$
14$
13$
12$
11$
10$
1/$
1.$
1-$
1,$
1+$
1*$
0)$
0($
0'$
0&$
0%$
0$$
0#$
0"$
0!$
0~#
0}#
0|#
0{#
0z#
0y#
1x#
0w#
0v#
0u#
0t#
0s#
0r#
0q#
1p#
1o#
1n#
1m#
1l#
1k#
1j#
1i#
0h#
1g#
0f#
0e#
0d#
1c#
0b#
1a#
0`#
0_#
0^#
0]#
1\#
0[#
0Z#
0Y#
0X#
0W#
0V#
0U#
0T#
1S#
0R#
0Q#
0P#
0O#
1N#
1M#
1L#
1K#
1J#
1I#
1H#
1G#
1F#
1E#
1D#
1C#
1B#
1A#
1@#
0?#
1>#
1=#
1<#
1;#
1:#
19#
18#
07#
06#
05#
14#
13#
12#
11#
00#
1/#
1.#
1-#
0,#
0+#
0*#
0)#
0(#
0'#
0&#
0%#
0$#
0##
1"#
0!#
1~"
1}"
1|"
1{"
1z"
0y"
0x"
0w"
0v"
0u"
1t"
0s"
0r"
0q"
0p"
0o"
0n"
0m"
0l"
0k"
0j"
0i"
1h"
0g"
0f"
0e"
0d"
0c"
0b"
0a"
0`"
0_"
0^"
0]"
1\"
0["
0Z"
0Y"
0X"
0W"
0V"
1U"
1T"
1S"
1R"
1Q"
0P"
1O"
1N"
1M"
1L"
1K"
1J"
1I"
1H"
1G"
1F"
1E"
1D"
1C"
1B"
0A"
1@"
1?"
1>"
1="
1<"
1;"
1:"
19"
18"
17"
16"
15"
14"
13"
12"
11"
10"
1/"
1."
1-"
1,"
1+"
1*"
1)"
1("
1'"
0&"
1%"
1$"
0#"
1""
1!"
1~
0}
1|
1{
1z
1y
1x
1w
1v
0u
0t
1s
1r
0q
0p
1o
0n
0m
0l
1k
0j
0i
0h
1g
1f
0e
0d
0c
0b
1a
0`
0_
0^
0]
0\
0[
0Z
0Y
0X
0W
1V
0U
0T
0S
0R
0Q
0P
0O
1N
0M
1L
0K
0J
0I
0H
0G
0F
0E
0D
0C
0B
1A
0@
1?
1>
0=
1<
1;
0:
09
18
17
06
15
04
03
02
01
00
0/
0.
1-
1,
0+
0*
1)
1(
1'
1&
1%
1$
0#
1"
0!
$end
#2
0U"
1f$
1q
1W"
1["
1C%
b1 6%
b1 @%
0R"
1;$
#4
1T#
0@#
1U"
1y#
0q
0E%
0W"
0["
09#
1D%
1r#
1R"
b1 J$
0;$
#12
0U"
1r$
1q
1W"
1["
b11 @%
b11 6%
1F%
0R"
1;$
#14
1U#
0A#
1U"
1z#
0q
0G%
0W"
0["
0:#
1n"
1s#
1R"
0;$
#22
0U"
1t$
1q
1W"
1["
1H%
b111 6%
b111 @%
0R"
1;$
#24
1V#
0J%
0B#
0L
1U"
1{#
1I%
0q
1K
0W"
0["
0;#
1t#
1R"
0;$
#32
0U"
1l$
1q
1W"
1["
b1111 @%
b1111 6%
1K%
0R"
1;$
#34
1W#
0C#
1U"
1|#
0q
0M%
0W"
0["
0<#
1L%
1u#
1R"
0;$
#42
0U"
1n$
1q
1W"
1["
1N%
b11111 6%
b11111 @%
0R"
1;$
#44
1X#
0{"
1p"
0D#
0!"
0_"
1U"
1}#
1}
0q
1J
0W"
0["
0=#
0/"
1v#
1R"
0;$
#52
0U"
1h$
1q
1W"
1["
b111111 @%
b111111 6%
1P%
0R"
1;$
#54
1Y#
11
0z"
0y
0E#
0-
1o"
1U"
1~#
1u
0q
0W"
0["
0>#
1w#
1R"
0;$
#62
0U"
1j$
1q
1W"
1["
1O%
b1111111 6%
b1111111 @%
0R"
1;$
#64
01
1Z#
1y
13
0{
0F#
08
1U"
1!$
1#"
1:
19
0q
0|"
0%"
0$"
0W"
0["
0H#
1q"
1#$
1R"
0;$
#72
0U"
1q
0?%
05%
1W"
1["
1$#
1(#
b11111111 @%
b11111111 6%
1Q%
0R"
1;$
#74
03
0}"
14
1{
0|
1r"
0:
09
1U"
1%"
1$"
0>
0q
1I
0?
0W"
0["
0N#
0."
1)$
1R"
0;$
#82
0U"
1q
1W"
1["
1X%
b1 4%
b1 >%
0R"
1;$
#84
1d#
0D"
0"
1U"
1!"
0q
0""
0W"
0["
08#
1q#
1R"
0;$
#92
0U"
1q
1W"
1["
b11 >%
b11 4%
0R"
1;$
#94
1U"
0q
0W"
0["
1R"
0;$
#102
0U"
1q
1W"
1["
b111 4%
b111 >%
0R"
1;$
#104
1U"
0q
0W"
0["
1R"
0;$
#112
0U"
1q
1W"
1["
b1111 >%
b1111 4%
0R"
1;$
#114
1U"
0q
0W"
0["
1R"
0;$
#122
0U"
1q
1W"
1["
b11111 4%
b11111 >%
0R"
1;$
#124
1U"
0q
0W"
0["
1R"
0;$
#132
0U"
1q
1W"
1["
b111111 >%
b111111 4%
0R"
1;$
#134
1U"
0q
0W"
0["
1R"
0;$
#142
0U"
1q
1W"
1["
b1111111 4%
b1111111 >%
0R"
1;$
#144
1U"
0q
0W"
0["
1R"
0;$
#152
0U"
1q
0=%
03%
1W"
1["
1%#
1)#
b11111111 >%
b11111111 4%
0R"
1;$
#154
1U"
0q
0W"
0["
1R"
0;$
#162
0U"
1q
1W"
1["
b1 2%
b1 <%
b1 :%
0R"
1;$
#164
1U"
0q
0W"
0["
1R"
0;$
#172
0U"
1q
1W"
1["
b11 :%
b11 <%
b11 2%
0R"
1;$
#174
1U"
0q
0W"
0["
1R"
0;$
#182
0U"
1q
1W"
1["
b111 2%
b111 <%
b111 :%
0R"
1;$
#184
1U"
0q
0W"
0["
1R"
0;$
#192
0U"
1q
1W"
1["
b1111 :%
b1111 <%
b1111 2%
0R"
1;$
#194
1U"
0q
0W"
0["
1R"
0;$
#202
0U"
1q
1W"
1["
b11111 2%
b11111 <%
b11111 :%
0R"
1;$
#204
1U"
0q
0W"
0["
1R"
0;$
#212
0U"
1q
1W"
1["
b111111 :%
b111111 <%
b111111 2%
0R"
1;$
#214
1U"
0q
0W"
0["
1R"
0;$
#222
0U"
1q
1W"
1["
b1111111 2%
b1111111 <%
b1111111 :%
0R"
1;$
#224
1U"
0q
0W"
0["
1R"
0;$
#232
0U"
1q
09%
0;%
01%
1W"
1["
1'#
1&#
1*#
b11111111 :%
b11111111 <%
b11111111 2%
0R"
1;$
#234
1U"
0q
0W"
0["
1R"
0;$
#242
0U"
1q
1W"
1["
b1 0%
b1 8%
0R"
1;$
#244
1U"
0q
0W"
0["
1R"
0;$
#252
0U"
1q
1W"
1["
b11 8%
b11 0%
0R"
1;$
#254
1U"
0q
0W"
0["
1R"
0;$
#262
0U"
1q
1W"
1["
b111 0%
b111 8%
0R"
1;$
#264
1U"
0q
0W"
0["
1R"
0;$
#272
0U"
1q
1W"
1["
b1111 8%
b1111 0%
0R"
1;$
#274
1U"
0q
0W"
0["
1R"
0;$
#282
0U"
1q
1W"
1["
b11111 0%
b11111 8%
0R"
1;$
#284
1U"
0q
0W"
0["
1R"
0;$
#292
0U"
1q
1W"
1["
b111111 8%
b111111 0%
0R"
1;$
#294
1U"
0q
0W"
0["
1R"
0;$
#302
0U"
1q
1W"
1["
b1111111 0%
b1111111 8%
0R"
1;$
#304
1U"
0q
0W"
0["
1R"
0;$
